03_verif/ACSU/simulation.log
Starting Add_compare_select_unit testbench...
=====================================
Time: 0 	|
| i_BM_0: 00 	| i_BM_1: 00 	| i_BM_2: 00 	| i_BM_3: 00 	|
| i_PM_0: 00 	| i_PM_1: 00 	| i_PM_2: 00 	| i_PM_3: 00 	|
| o_PM_0: 00 	| o_PM_1: 00 	| o_PM_2: 00 	| o_PM_3: 00 	|
Time: 11000 	|
| i_BM_0: 00 	| i_BM_1: 00 	| i_BM_2: 10 	| i_BM_3: 00 	|
| i_PM_0: 00 	| i_PM_1: 00 	| i_PM_2: 10 	| i_PM_3: 00 	|
| o_PM_0: 00 	| o_PM_1: 00 	| o_PM_2: 00 	| o_PM_3: 10 	|
Time: 22000 	|
| i_BM_0: 11 	| i_BM_1: 11 	| i_BM_2: 01 	| i_BM_3: 01 	|
| i_PM_0: 01 	| i_PM_1: 10 	| i_PM_2: 10 	| i_PM_3: 01 	|
| o_PM_0: 11 	| o_PM_1: 11 	| o_PM_2: 10 	| o_PM_3: 10 	|
Time: 33000 	|
| i_BM_0: 10 	| i_BM_1: 10 	| i_BM_2: 01 	| i_BM_3: 00 	|
| i_PM_0: 11 	| i_PM_1: 00 	| i_PM_2: 10 	| i_PM_3: 00 	|
| o_PM_0: 00 	| o_PM_1: 10 	| o_PM_2: 10 	| o_PM_3: 01 	|
Time: 44000 	|
| i_BM_0: 10 	| i_BM_1: 10 	| i_BM_2: 10 	| i_BM_3: 10 	|
| i_PM_0: 00 	| i_PM_1: 10 	| i_PM_2: 11 	| i_PM_3: 00 	|
| o_PM_0: 10 	| o_PM_1: 10 	| o_PM_2: 10 	| o_PM_3: 10 	|
Time: 55000 	|
| i_BM_0: 01 	| i_BM_1: 10 	| i_BM_2: 10 	| i_BM_3: 01 	|
| i_PM_0: 11 	| i_PM_1: 00 	| i_PM_2: 11 	| i_PM_3: 10 	|
| o_PM_0: 01 	| o_PM_1: 11 	| o_PM_2: 01 	| o_PM_3: 11 	|
Time: 66000 	|
| i_BM_0: 11 	| i_BM_1: 01 	| i_BM_2: 10 	| i_BM_3: 11 	|
| i_PM_0: 10 	| i_PM_1: 00 	| i_PM_2: 11 	| i_PM_3: 11 	|
| o_PM_0: 11 	| o_PM_1: 11 	| o_PM_2: 11 	| o_PM_3: 11 	|
Time: 77000 	|
| i_BM_0: 00 	| i_BM_1: 10 	| i_BM_2: 10 	| i_BM_3: 11 	|
| i_PM_0: 01 	| i_PM_1: 11 	| i_PM_2: 11 	| i_PM_3: 00 	|
| o_PM_0: 01 	| o_PM_1: 10 	| o_PM_2: 11 	| o_PM_3: 10 	|
Time: 88000 	|
| i_BM_0: 01 	| i_BM_1: 11 	| i_BM_2: 11 	| i_BM_3: 00 	|
| i_PM_0: 11 	| i_PM_1: 01 	| i_PM_2: 01 	| i_PM_3: 10 	|
| o_PM_0: 01 	| o_PM_1: 11 	| o_PM_2: 10 	| o_PM_3: 11 	|
Time: 99000 	|
| i_BM_0: 01 	| i_BM_1: 11 	| i_BM_2: 00 	| i_BM_3: 11 	|
| i_PM_0: 01 	| i_PM_1: 01 	| i_PM_2: 01 	| i_PM_3: 00 	|
| o_PM_0: 10 	| o_PM_1: 01 	| o_PM_2: 10 	| o_PM_3: 00 	|
Time: 110000 	|
| i_BM_0: 10 	| i_BM_1: 10 	| i_BM_2: 00 	| i_BM_3: 00 	|
| i_PM_0: 11 	| i_PM_1: 01 	| i_PM_2: 11 	| i_PM_3: 01 	|
| o_PM_0: 01 	| o_PM_1: 11 	| o_PM_2: 11 	| o_PM_3: 01 	|
Time: 121000 	|
| i_BM_0: 01 	| i_BM_1: 10 	| i_BM_2: 11 	| i_BM_3: 01 	|
| i_PM_0: 11 	| i_PM_1: 01 	| i_PM_2: 10 	| i_PM_3: 11 	|
| o_PM_0: 10 	| o_PM_1: 11 	| o_PM_2: 10 	| o_PM_3: 11 	|
Time: 132000 	|
| i_BM_0: 11 	| i_BM_1: 01 	| i_BM_2: 11 	| i_BM_3: 11 	|
| i_PM_0: 10 	| i_PM_1: 11 	| i_PM_2: 10 	| i_PM_3: 11 	|
| o_PM_0: 11 	| o_PM_1: 11 	| o_PM_2: 11 	| o_PM_3: 11 	|
Time: 143000 	|
| i_BM_0: 11 	| i_BM_1: 11 	| i_BM_2: 00 	| i_BM_3: 10 	|
| i_PM_0: 11 	| i_PM_1: 00 	| i_PM_2: 10 	| i_PM_3: 01 	|
| o_PM_0: 10 	| o_PM_1: 10 	| o_PM_2: 11 	| o_PM_3: 01 	|
Time: 154000 	|
| i_BM_0: 00 	| i_BM_1: 00 	| i_BM_2: 01 	| i_BM_3: 01 	|
| i_PM_0: 01 	| i_PM_1: 11 	| i_PM_2: 01 	| i_PM_3: 01 	|
| o_PM_0: 01 	| o_PM_1: 01 	| o_PM_2: 10 	| o_PM_3: 01 	|
Time: 165000 	|
| i_BM_0: 01 	| i_BM_1: 10 	| i_BM_2: 10 	| i_BM_3: 10 	|
| i_PM_0: 00 	| i_PM_1: 01 	| i_PM_2: 00 	| i_PM_3: 00 	|
| o_PM_0: 01 	| o_PM_1: 10 	| o_PM_2: 10 	| o_PM_3: 10 	|
Simulation finished.
=====================================
- tb_acsu.sv:64: Verilog $finish
