03_verif/CONV_BLOCK/tb_Conv_block.vcd
$version Generated by VerilatedVcd $end
$timescale 1ps $end
 $scope module TOP $end
  $scope module tb_Conv_block $end
   $var wire 32 - SIZE_IN [31:0] $end
   $var wire 32 . SIZE_OUT [31:0] $end
   $var wire 1 # i_clk $end
   $var wire 1 $ i_rst_n $end
   $var wire 1 % i_start $end
   $var wire 1 & i_data [0:0] $end
   $var wire 2 ' o_data [1:0] $end
   $var wire 1 % o_valid $end
   $var wire 32 ( send_serial_bits__Vstatic__i [31:0] $end
   $scope module uut $end
    $var wire 32 - SIZE_IN [31:0] $end
    $var wire 32 . SIZE_OUT [31:0] $end
    $var wire 1 # i_clk $end
    $var wire 1 $ i_rst_n $end
    $var wire 1 % i_start $end
    $var wire 1 & i_data [0:0] $end
    $var wire 2 ' o_data [1:0] $end
    $var wire 1 % o_valid $end
    $var wire 1 & w_data_0 [0:0] $end
    $var wire 1 ) w_data_1 [0:0] $end
    $var wire 1 * w_data_2 [0:0] $end
    $var wire 1 + w_odata_0 $end
    $var wire 1 , w_odata_1 $end
    $scope module DFF_0 $end
     $var wire 1 # i_clk $end
     $var wire 1 $ i_rst_n $end
     $var wire 1 % i_en $end
     $var wire 1 & i_d $end
     $var wire 1 ) o_q $end
    $upscope $end
    $scope module DFF_1 $end
     $var wire 1 # i_clk $end
     $var wire 1 $ i_rst_n $end
     $var wire 1 % i_en $end
     $var wire 1 ) i_d $end
     $var wire 1 * o_q $end
    $upscope $end
   $upscope $end
  $upscope $end
 $upscope $end
$enddefinitions $end


#0
0#
0$
0%
0&
b00 '
b00000000000000000000000000000000 (
0)
0*
0+
0,
b00000000000000000000000000000001 -
b00000000000000000000000000000010 .
#10000
1#
#20000
0#
#30000
1#
#40000
0#
#50000
1#
#60000
0#
#70000
1#
#80000
0#
#90000
1#
#100000
0#
1$
#110000
1#
#120000
0#
#130000
1#
#140000
0#
#150000
1#
#160000
0#
#170000
1#
#180000
0#
#190000
1#
#200000
0#
#210000
1#
#220000
0#
#230000
1#
#240000
0#
#250000
1#
#260000
0#
#270000
1#
#280000
0#
#290000
1#
#300000
0#
b00000000000000000000000000000111 (
#310000
1#
#320000
0#
1%
1&
b11 '
1+
1,
#321000
b00000000000000000000000000000110 (
#330000
1#
b01 '
1)
0,
#340000
0#
#341000
b00000000000000000000000000000101 (
#350000
1#
b10 '
1*
0+
1,
#360000
0#
0&
b01 '
1+
0,
#361000
b00000000000000000000000000000100 (
#370000
1#
b11 '
0)
1,
#380000
0#
1&
b00 '
0+
0,
#381000
b00000000000000000000000000000011 (
#390000
1#
b01 '
1)
0*
1+
#400000
0#
#401000
b00000000000000000000000000000010 (
#410000
1#
b10 '
1*
0+
1,
#420000
0#
0&
b01 '
1+
0,
#421000
b00000000000000000000000000000001 (
#430000
1#
b11 '
0)
1,
#440000
0#
1&
b00 '
0+
0,
#441000
b00000000000000000000000000000000 (
#450000
1#
b01 '
1)
0*
1+
#460000
0#
0&
b10 '
0+
1,
#461000
0%
b11111111111111111111111111111111 (
#470000
1#
#480000
0#
#490000
1#
#500000
0#
#510000
1#
#520000
0#
#530000
1#
#540000
0#
#550000
1#
#560000
0#
#570000
1#
#580000
0#
#590000
1#
#600000
0#
#610000
1#
#620000
0#
#630000
1#
#640000
0#
#650000
1#
#660000
0#
#661000
0$
b00 '
0)
0,
#670000
1#
#680000
0#
#690000
1#
#700000
0#
#710000
1#
#720000
0#
#730000
1#
#740000
0#
#750000
1#
#760000
0#
#761000
1$
#770000
1#
#780000
0#
#790000
1#
#800000
0#
#810000
1#
#820000
0#
#830000
1#
#840000
0#
#850000
1#
#860000
0#
#861000
#870000
1#
#880000
0#
#890000
1#
#900000
0#
#910000
1#
#920000
0#
#930000
1#
#940000
0#
#950000
1#
#960000
0#
#961000
b00000000000000000000000000000111 (
#970000
1#
#980000
0#
1%
1&
b11 '
1+
1,
#981000
b00000000000000000000000000000110 (
#990000
1#
b01 '
1)
0,
#1000000
0#
0&
b10 '
0+
1,
#1001000
b00000000000000000000000000000101 (
#1010000
1#
b11 '
0)
1*
1+
#1020000
0#
1&
b00 '
0+
0,
#1021000
b00000000000000000000000000000100 (
#1030000
1#
b01 '
1)
0*
1+
#1040000
0#
0&
b10 '
0+
1,
#1041000
b00000000000000000000000000000011 (
#1050000
1#
b11 '
0)
1*
1+
#1060000
0#
1&
b00 '
0+
0,
#1061000
b00000000000000000000000000000010 (
#1070000
1#
b01 '
1)
0*
1+
#1080000
0#
0&
b10 '
0+
1,
#1081000
b00000000000000000000000000000001 (
#1090000
1#
b11 '
0)
1*
1+
#1100000
0#
1&
b00 '
0+
0,
#1101000
b00000000000000000000000000000000 (
#1110000
1#
b01 '
1)
0*
1+
#1120000
0#
0&
b10 '
0+
1,
#1121000
0%
b11111111111111111111111111111111 (
#1130000
1#
#1140000
0#
#1150000
1#
#1160000
0#
#1170000
1#
#1180000
0#
#1190000
1#
#1200000
0#
#1210000
1#
#1220000
0#
#1230000
1#
#1240000
0#
#1250000
1#
#1260000
0#
#1270000
1#
#1280000
0#
#1290000
1#
#1300000
0#
#1310000
1#
#1320000
0#
#1321000
0$
b00 '
0)
0,
#1330000
1#
#1340000
0#
#1350000
1#
#1360000
0#
#1370000
1#
#1380000
0#
#1390000
1#
#1400000
0#
#1410000
1#
#1420000
0#
#1421000
1$
#1430000
1#
#1440000
0#
#1450000
1#
#1460000
0#
#1470000
1#
#1480000
0#
#1490000
1#
#1500000
0#
#1510000
1#
#1520000
0#
#1521000
#1530000
1#
#1540000
0#
#1550000
1#
#1560000
0#
#1570000
1#
#1580000
0#
#1590000
1#
#1600000
0#
#1610000
1#
#1620000
0#
#1621000
b00000000000000000000000000000111 (
#1630000
1#
#1640000
0#
1%
#1641000
b00000000000000000000000000000110 (
#1650000
1#
#1660000
0#
#1661000
b00000000000000000000000000000101 (
#1670000
1#
#1680000
0#
#1681000
b00000000000000000000000000000100 (
#1690000
1#
#1700000
0#
#1701000
b00000000000000000000000000000011 (
#1710000
1#
#1720000
0#
#1721000
b00000000000000000000000000000010 (
#1730000
1#
#1740000
0#
#1741000
b00000000000000000000000000000001 (
#1750000
1#
#1760000
0#
#1761000
b00000000000000000000000000000000 (
#1770000
1#
#1780000
0#
1&
b11 '
1+
1,
#1781000
0%
b11111111111111111111111111111111 (
