03_verif/VD_312/simulation.log
Time: 0, o_decision: 0, o_valid: 0
TestCase 1:
 Data input: 10101010
 Data conv : 1110001000100010
Time: 50000, o_decision: 1, o_valid: 1
Time: 51000 	| i_valid = 1 	| i_data: 11 	| o_decision = 1 	| o_valid = 1 	|
Time: 71000 	| i_valid = 1 	| i_data: 10 	| o_decision = 0 	| o_valid = 1 	|
Time: 91000 	| i_valid = 1 	| i_data: 00 	| o_decision = 1 	| o_valid = 1 	|
Time: 111000 	| i_valid = 1 	| i_data: 10 	| o_decision = 0 	| o_valid = 1 	|
Time: 131000 	| i_valid = 1 	| i_data: 00 	| o_decision = 1 	| o_valid = 1 	|
Time: 151000 	| i_valid = 1 	| i_data: 10 	| o_decision = 0 	| o_valid = 1 	|
Time: 171000 	| i_valid = 1 	| i_data: 00 	| o_decision = 1 	| o_valid = 1 	|
Time: 191000 	| i_valid = 1 	| i_data: 10 	| o_decision = 0 	| o_valid = 1 	|
Time: 210000, o_decision: 0, o_valid: 0
Time: 211000 	| i_valid = 0 	| i_data: 10 	| o_decision = 0 	| o_valid = 0 	|
==========================================================
TestCase 2:
 Data input: 00101001
 Data conv : 0000111000101111
Time: 270000, o_decision: 0, o_valid: 1
Time: 271000 	| i_valid = 1 	| i_data: 00 	| o_decision = 0 	| o_valid = 1 	|
Time: 291000 	| i_valid = 1 	| i_data: 00 	| o_decision = 0 	| o_valid = 1 	|
Time: 311000 	| i_valid = 1 	| i_data: 11 	| o_decision = 1 	| o_valid = 1 	|
Time: 331000 	| i_valid = 1 	| i_data: 10 	| o_decision = 0 	| o_valid = 1 	|
Time: 351000 	| i_valid = 1 	| i_data: 00 	| o_decision = 1 	| o_valid = 1 	|
Time: 371000 	| i_valid = 1 	| i_data: 10 	| o_decision = 0 	| o_valid = 1 	|
Time: 391000 	| i_valid = 1 	| i_data: 11 	| o_decision = 0 	| o_valid = 1 	|
Time: 411000 	| i_valid = 1 	| i_data: 11 	| o_decision = 1 	| o_valid = 1 	|
Time: 430000, o_decision: 1, o_valid: 0
Time: 431000 	| i_valid = 0 	| i_data: 11 	| o_decision = 1 	| o_valid = 0 	|
==========================================================
TestCase 3:
 Data input: 00000001
 Data conv : 0000000000000011
Time: 490000, o_decision: 0, o_valid: 1
Time: 491000 	| i_valid = 1 	| i_data: 00 	| o_decision = 0 	| o_valid = 1 	|
Time: 511000 	| i_valid = 1 	| i_data: 00 	| o_decision = 0 	| o_valid = 1 	|
Time: 531000 	| i_valid = 1 	| i_data: 00 	| o_decision = 0 	| o_valid = 1 	|
Time: 551000 	| i_valid = 1 	| i_data: 00 	| o_decision = 0 	| o_valid = 1 	|
Time: 570000, o_decision: 0, o_valid: 0
Time: 571000 	| i_valid = 0 	| i_data: 01 	| o_decision = 0 	| o_valid = 0 	|
Time: 591000 	| i_valid = 0 	| i_data: 10 	| o_decision = 0 	| o_valid = 0 	|
Time: 610000, o_decision: 0, o_valid: 1
Time: 611000 	| i_valid = 1 	| i_data: 00 	| o_decision = 0 	| o_valid = 1 	|
Time: 631000 	| i_valid = 1 	| i_data: 00 	| o_decision = 0 	| o_valid = 1 	|
Time: 651000 	| i_valid = 1 	| i_data: 00 	| o_decision = 0 	| o_valid = 1 	|
Time: 671000 	| i_valid = 1 	| i_data: 11 	| o_decision = 1 	| o_valid = 1 	|
Time: 690000, o_decision: 1, o_valid: 0
Time: 691000 	| i_valid = 0 	| i_data: 11 	| o_decision = 1 	| o_valid = 0 	|
==========================================================
- tb_Viterbi_decoding.sv:182: Verilog $finish
