03_verif/VD_312/tb_viterbi.vcd
$version Generated by VerilatedVcd $end
$timescale 1ps $end
 $scope module TOP $end
  $scope module tb_viterbi $end
   $var wire 1 k i_clk $end
   $var wire 1 l i_rst_n $end
   $var wire 1 m i_start $end
   $var wire 16 n i_data [15:0] $end
   $var wire 8 + o_data [7:0] $end
   $var wire 1 , o_valid $end
   $scope module uut $end
    $var wire 1 k i_clk $end
    $var wire 1 l i_rst_n $end
    $var wire 1 m i_start $end
    $var wire 16 n i_data [15:0] $end
    $var wire 8 + o_data [7:0] $end
    $var wire 1 , o_valid $end
    $var wire 2 - w_idata [1:0] $end
    $var wire 1 > w_valid_IIB $end
    $var wire 1 ? w_valid_VD $end
    $var wire 1 @ w_stop_IIB $end
    $var wire 1 A w_start_OIB $end
    $var wire 1 B w_odata $end
    $scope module IIB $end
     $var wire 32 o SIZE_IN [31:0] $end
     $var wire 32 p SIZE_OUT [31:0] $end
     $var wire 1 k i_clk $end
     $var wire 1 l i_rst_n $end
     $var wire 1 m i_start $end
     $var wire 16 n i_data [15:0] $end
     $var wire 2 - o_data [1:0] $end
     $var wire 1 > o_valid $end
     $var wire 1 @ o_stop $end
     $var wire 4 C state [3:0] $end
     $scope module nsb $end
      $var wire 1 k i_clk $end
      $var wire 1 l i_rst_n $end
      $var wire 1 m i_start $end
      $var wire 4 C o_state [3:0] $end
      $var wire 1 > o_valid $end
      $var wire 1 @ o_stop $end
      $var wire 4 C state [3:0] $end
      $var wire 4 D nstate [3:0] $end
     $upscope $end
     $scope module ob $end
      $var wire 32 o SIZE_IN [31:0] $end
      $var wire 32 p SIZE_OUT [31:0] $end
      $var wire 4 C i_state [3:0] $end
      $var wire 16 n i_data [15:0] $end
      $var wire 2 - o_data [1:0] $end
      $var wire 2 # shift_reg[0] [1:0] $end
      $var wire 2 $ shift_reg[1] [1:0] $end
      $var wire 2 % shift_reg[2] [1:0] $end
      $var wire 2 & shift_reg[3] [1:0] $end
      $var wire 2 ' shift_reg[4] [1:0] $end
      $var wire 2 ( shift_reg[5] [1:0] $end
      $var wire 2 ) shift_reg[6] [1:0] $end
      $var wire 2 * shift_reg[7] [1:0] $end
     $upscope $end
    $upscope $end
    $scope module OIB $end
     $var wire 32 q SIZE_IN [31:0] $end
     $var wire 32 r SIZE_OUT [31:0] $end
     $var wire 1 k i_clk $end
     $var wire 1 l i_rst_n $end
     $var wire 1 A i_start $end
     $var wire 1 ? i_valid $end
     $var wire 1 B i_data [0:0] $end
     $var wire 8 + o_data [7:0] $end
     $var wire 1 , o_valid $end
     $var wire 1 E shift_reg[0] [0:0] $end
     $var wire 1 F shift_reg[1] [0:0] $end
     $var wire 1 G shift_reg[2] [0:0] $end
     $var wire 1 H shift_reg[3] [0:0] $end
     $var wire 1 I shift_reg[4] [0:0] $end
     $var wire 1 J shift_reg[5] [0:0] $end
     $var wire 1 K shift_reg[6] [0:0] $end
     $var wire 1 L shift_reg[7] [0:0] $end
     $scope module unnamedblk1 $end
      $var wire 32 M i [31:0] $end
     $upscope $end
     $scope module unnamedblk2 $end
      $var wire 32 N i [31:0] $end
     $upscope $end
    $upscope $end
    $scope module VD $end
     $var wire 1 k i_clk $end
     $var wire 1 l i_rst_n $end
     $var wire 1 > i_valid $end
     $var wire 2 - i_data [1:0] $end
     $var wire 1 B o_decision $end
     $var wire 1 ? o_valid $end
     $var wire 2 O w_iBM_0 [1:0] $end
     $var wire 2 P w_iBM_1 [1:0] $end
     $var wire 2 Q w_iBM_2 [1:0] $end
     $var wire 2 R w_iBM_3 [1:0] $end
     $var wire 2 . w_oBM_0 [1:0] $end
     $var wire 2 / w_oBM_1 [1:0] $end
     $var wire 2 0 w_oBM_2 [1:0] $end
     $var wire 2 1 w_oBM_3 [1:0] $end
     $var wire 2 S w_iPM_0 [1:0] $end
     $var wire 2 T w_iPM_1 [1:0] $end
     $var wire 2 U w_iPM_2 [1:0] $end
     $var wire 2 V w_iPM_3 [1:0] $end
     $var wire 2 W w_oPM_0 [1:0] $end
     $var wire 2 X w_oPM_1 [1:0] $end
     $var wire 2 Y w_oPM_2 [1:0] $end
     $var wire 2 Z w_oPM_3 [1:0] $end
     $var wire 1 ? w_valid $end
     $scope module ACSU $end
      $var wire 2 O i_BM_0 [1:0] $end
      $var wire 2 P i_BM_1 [1:0] $end
      $var wire 2 Q i_BM_2 [1:0] $end
      $var wire 2 R i_BM_3 [1:0] $end
      $var wire 2 S i_PM_0 [1:0] $end
      $var wire 2 T i_PM_1 [1:0] $end
      $var wire 2 U i_PM_2 [1:0] $end
      $var wire 2 V i_PM_3 [1:0] $end
      $var wire 2 W o_PM_0 [1:0] $end
      $var wire 2 X o_PM_1 [1:0] $end
      $var wire 2 Y o_PM_2 [1:0] $end
      $var wire 2 Z o_PM_3 [1:0] $end
      $var wire 2 W w_PM_0 [1:0] $end
      $var wire 2 X w_PM_1 [1:0] $end
      $var wire 2 Y w_PM_2 [1:0] $end
      $var wire 2 Z w_PM_3 [1:0] $end
      $scope module ACS_0 $end
       $var wire 2 O i_BM_0 [1:0] $end
       $var wire 2 R i_BM_1 [1:0] $end
       $var wire 2 S i_PM_0 [1:0] $end
       $var wire 2 T i_PM_1 [1:0] $end
       $var wire 2 W o_PM [1:0] $end
       $var wire 2 [ w_metric_path_0 [1:0] $end
       $var wire 2 \ w_metric_path_1 [1:0] $end
       $var wire 1 ] w_compare_less $end
       $scope module ADD0 $end
        $var wire 2 O i_BM [1:0] $end
        $var wire 2 S i_PM [1:0] $end
        $var wire 2 [ o_PM [1:0] $end
       $upscope $end
       $scope module ADD1 $end
        $var wire 2 R i_BM [1:0] $end
        $var wire 2 T i_PM [1:0] $end
        $var wire 2 \ o_PM [1:0] $end
       $upscope $end
       $scope module CP $end
        $var wire 2 [ i_metric_path_0 [1:0] $end
        $var wire 2 \ i_metric_path_1 [1:0] $end
        $var wire 1 ] o_compare_less $end
       $upscope $end
      $upscope $end
      $scope module ACS_1 $end
       $var wire 2 Q i_BM_0 [1:0] $end
       $var wire 2 P i_BM_1 [1:0] $end
       $var wire 2 U i_PM_0 [1:0] $end
       $var wire 2 V i_PM_1 [1:0] $end
       $var wire 2 X o_PM [1:0] $end
       $var wire 2 ^ w_metric_path_0 [1:0] $end
       $var wire 2 _ w_metric_path_1 [1:0] $end
       $var wire 1 ` w_compare_less $end
       $scope module ADD0 $end
        $var wire 2 Q i_BM [1:0] $end
        $var wire 2 U i_PM [1:0] $end
        $var wire 2 ^ o_PM [1:0] $end
       $upscope $end
       $scope module ADD1 $end
        $var wire 2 P i_BM [1:0] $end
        $var wire 2 V i_PM [1:0] $end
        $var wire 2 _ o_PM [1:0] $end
       $upscope $end
       $scope module CP $end
        $var wire 2 ^ i_metric_path_0 [1:0] $end
        $var wire 2 _ i_metric_path_1 [1:0] $end
        $var wire 1 ` o_compare_less $end
       $upscope $end
      $upscope $end
      $scope module ACS_2 $end
       $var wire 2 R i_BM_0 [1:0] $end
       $var wire 2 O i_BM_1 [1:0] $end
       $var wire 2 S i_PM_0 [1:0] $end
       $var wire 2 T i_PM_1 [1:0] $end
       $var wire 2 Y o_PM [1:0] $end
       $var wire 2 a w_metric_path_0 [1:0] $end
       $var wire 2 b w_metric_path_1 [1:0] $end
       $var wire 1 c w_compare_less $end
       $scope module ADD0 $end
        $var wire 2 R i_BM [1:0] $end
        $var wire 2 S i_PM [1:0] $end
        $var wire 2 a o_PM [1:0] $end
       $upscope $end
       $scope module ADD1 $end
        $var wire 2 O i_BM [1:0] $end
        $var wire 2 T i_PM [1:0] $end
        $var wire 2 b o_PM [1:0] $end
       $upscope $end
       $scope module CP $end
        $var wire 2 a i_metric_path_0 [1:0] $end
        $var wire 2 b i_metric_path_1 [1:0] $end
        $var wire 1 c o_compare_less $end
       $upscope $end
      $upscope $end
      $scope module ACS_3 $end
       $var wire 2 P i_BM_0 [1:0] $end
       $var wire 2 Q i_BM_1 [1:0] $end
       $var wire 2 U i_PM_0 [1:0] $end
       $var wire 2 V i_PM_1 [1:0] $end
       $var wire 2 Z o_PM [1:0] $end
       $var wire 2 d w_metric_path_0 [1:0] $end
       $var wire 2 e w_metric_path_1 [1:0] $end
       $var wire 1 f w_compare_less $end
       $scope module ADD0 $end
        $var wire 2 P i_BM [1:0] $end
        $var wire 2 U i_PM [1:0] $end
        $var wire 2 d o_PM [1:0] $end
       $upscope $end
       $scope module ADD1 $end
        $var wire 2 Q i_BM [1:0] $end
        $var wire 2 V i_PM [1:0] $end
        $var wire 2 e o_PM [1:0] $end
       $upscope $end
       $scope module CP $end
        $var wire 2 d i_metric_path_0 [1:0] $end
        $var wire 2 e i_metric_path_1 [1:0] $end
        $var wire 1 f o_compare_less $end
       $upscope $end
      $upscope $end
     $upscope $end
     $scope module BMU $end
      $var wire 2 - i_data [1:0] $end
      $var wire 2 . o_BM_0 [1:0] $end
      $var wire 2 / o_BM_1 [1:0] $end
      $var wire 2 0 o_BM_2 [1:0] $end
      $var wire 2 1 o_BM_3 [1:0] $end
      $var wire 2 . w_BM_0 [1:0] $end
      $var wire 2 / w_BM_1 [1:0] $end
      $var wire 2 0 w_BM_2 [1:0] $end
      $var wire 2 1 w_BM_3 [1:0] $end
      $scope module HD0 $end
       $var wire 2 - i_data [1:0] $end
       $var wire 2 s i_exp_code [1:0] $end
       $var wire 2 . o_hamming_distance [1:0] $end
       $var wire 1 2 w_data_0 $end
       $var wire 1 3 w_data_1 $end
       $scope module FA $end
        $var wire 1 2 i_a $end
        $var wire 1 3 i_b $end
        $var wire 1 t i_c $end
        $var wire 1 4 o_s $end
        $var wire 1 5 o_c $end
       $upscope $end
      $upscope $end
      $scope module HD1 $end
       $var wire 2 - i_data [1:0] $end
       $var wire 2 u i_exp_code [1:0] $end
       $var wire 2 / o_hamming_distance [1:0] $end
       $var wire 1 6 w_data_0 $end
       $var wire 1 3 w_data_1 $end
       $scope module FA $end
        $var wire 1 6 i_a $end
        $var wire 1 3 i_b $end
        $var wire 1 t i_c $end
        $var wire 1 7 o_s $end
        $var wire 1 8 o_c $end
       $upscope $end
      $upscope $end
      $scope module HD2 $end
       $var wire 2 - i_data [1:0] $end
       $var wire 2 v i_exp_code [1:0] $end
       $var wire 2 0 o_hamming_distance [1:0] $end
       $var wire 1 2 w_data_0 $end
       $var wire 1 9 w_data_1 $end
       $scope module FA $end
        $var wire 1 2 i_a $end
        $var wire 1 9 i_b $end
        $var wire 1 t i_c $end
        $var wire 1 : o_s $end
        $var wire 1 ; o_c $end
       $upscope $end
      $upscope $end
      $scope module HD3 $end
       $var wire 2 - i_data [1:0] $end
       $var wire 2 w i_exp_code [1:0] $end
       $var wire 2 1 o_hamming_distance [1:0] $end
       $var wire 1 6 w_data_0 $end
       $var wire 1 9 w_data_1 $end
       $scope module FA $end
        $var wire 1 6 i_a $end
        $var wire 1 9 i_b $end
        $var wire 1 t i_c $end
        $var wire 1 < o_s $end
        $var wire 1 = o_c $end
       $upscope $end
      $upscope $end
     $upscope $end
     $scope module BUFFER $end
      $var wire 1 k i_clk $end
      $var wire 1 l i_rst_n $end
      $var wire 1 > i_valid $end
      $var wire 2 . i_BM_0 [1:0] $end
      $var wire 2 / i_BM_1 [1:0] $end
      $var wire 2 0 i_BM_2 [1:0] $end
      $var wire 2 1 i_BM_3 [1:0] $end
      $var wire 2 W i_PM_0 [1:0] $end
      $var wire 2 X i_PM_1 [1:0] $end
      $var wire 2 Y i_PM_2 [1:0] $end
      $var wire 2 Z i_PM_3 [1:0] $end
      $var wire 2 O o_BM_0 [1:0] $end
      $var wire 2 P o_BM_1 [1:0] $end
      $var wire 2 Q o_BM_2 [1:0] $end
      $var wire 2 R o_BM_3 [1:0] $end
      $var wire 2 S o_PM_0 [1:0] $end
      $var wire 2 T o_PM_1 [1:0] $end
      $var wire 2 U o_PM_2 [1:0] $end
      $var wire 2 V o_PM_3 [1:0] $end
      $var wire 1 ? o_valid $end
     $upscope $end
     $scope module SPMU $end
      $var wire 1 k i_clk $end
      $var wire 1 l i_rst_n $end
      $var wire 1 ? i_valid $end
      $var wire 2 W i_PM_0 [1:0] $end
      $var wire 2 X i_PM_1 [1:0] $end
      $var wire 2 Y i_PM_2 [1:0] $end
      $var wire 2 Z i_PM_3 [1:0] $end
      $var wire 1 B o_decision $end
      $var wire 1 g w_compare_0 $end
      $var wire 1 h w_compare_1 $end
      $scope module CP0 $end
       $var wire 2 W i_metric_path_0 [1:0] $end
       $var wire 2 Y i_metric_path_1 [1:0] $end
       $var wire 1 g o_compare_less $end
      $upscope $end
      $scope module CP1 $end
       $var wire 2 X i_metric_path_0 [1:0] $end
       $var wire 2 Z i_metric_path_1 [1:0] $end
       $var wire 1 h o_compare_less $end
      $upscope $end
      $scope module u_state_machine $end
       $var wire 1 k i_clk $end
       $var wire 1 l i_rst_n $end
       $var wire 1 ? i_valid $end
       $var wire 1 g i_compare_0 $end
       $var wire 1 h i_compare_1 $end
       $var wire 1 B o_decision $end
       $var wire 2 s S0 [1:0] $end
       $var wire 2 u S1 [1:0] $end
       $var wire 2 v S2 [1:0] $end
       $var wire 2 w S3 [1:0] $end
       $var wire 2 i state [1:0] $end
       $var wire 2 j nstate [1:0] $end
       $scope module NSL $end
        $var wire 1 ? i_valid $end
        $var wire 1 g i_compare_0 $end
        $var wire 1 h i_compare_1 $end
        $var wire 2 i i_pre_state [1:0] $end
        $var wire 2 j o_next_state [1:0] $end
        $var wire 2 s S0 [1:0] $end
        $var wire 2 u S1 [1:0] $end
        $var wire 2 v S2 [1:0] $end
        $var wire 2 w S3 [1:0] $end
       $upscope $end
       $scope module OL $end
        $var wire 2 j i_curr_state [1:0] $end
        $var wire 1 B o_decision_bit $end
        $var wire 2 s S0 [1:0] $end
        $var wire 2 u S1 [1:0] $end
        $var wire 2 v S2 [1:0] $end
        $var wire 2 w S3 [1:0] $end
       $upscope $end
       $scope module SM $end
        $var wire 1 k i_clk $end
        $var wire 1 l i_rst_n $end
        $var wire 2 j i_next_state [1:0] $end
        $var wire 2 i o_curr_state [1:0] $end
        $var wire 2 s S0 [1:0] $end
        $var wire 2 u S1 [1:0] $end
        $var wire 2 v S2 [1:0] $end
        $var wire 2 w S3 [1:0] $end
       $upscope $end
      $upscope $end
     $upscope $end
    $upscope $end
   $upscope $end
  $upscope $end
 $upscope $end
$enddefinitions $end


#0
b00 #
b00 $
b00 %
b00 &
b00 '
b00 (
b00 )
b00 *
b00000000 +
0,
b00 -
b00 .
b01 /
b01 0
b10 1
02
03
04
05
16
17
08
19
1:
0;
0<
1=
0>
0?
0@
0A
0B
b0000 C
b0001 D
0E
0F
0G
0H
0I
0J
0K
0L
b00000000000000000000000000000000 M
b00000000000000000000000000000000 N
b00 O
b00 P
b00 Q
b00 R
b00 S
b00 T
b00 U
b00 V
b00 W
b00 X
b00 Y
b00 Z
b00 [
b00 \
1]
b00 ^
b00 _
1`
b00 a
b00 b
1c
b00 d
b00 e
1f
1g
1h
b00 i
b00 j
0k
0l
0m
b0000000000000000 n
b00000000000000000000000000010000 o
b00000000000000000000000000000010 p
b00000000000000000000000000000001 q
b00000000000000000000000000001000 r
b00 s
0t
b01 u
b10 v
b11 w
#5000
b00000000000000000000000000001000 M
b11 T
b11 U
b11 V
b11 X
b11 Z
b11 \
b11 ^
b11 _
b11 b
b11 d
b11 e
1k
#10000
0k
1m
#15000
1k
#20000
0k
1l
#25000
b11 #
b01 $
b01 %
b01 '
b01 (
b11 *
b11 -
b10 .
b00 1
12
13
15
06
09
0=
1>
b0001 C
b0010 D
1k
b1101010001010011 n
#30000
0k
#35000
b01 -
b01 .
b00 /
b10 0
b01 1
03
14
05
07
19
0:
1;
1<
1?
1B
b0010 C
b0011 D
b10 O
b01 P
b01 Q
b00 U
b10 W
b01 X
b01 Z
b10 [
b01 ^
b01 d
0g
b10 j
1k
#40000
0k
#45000
b0011 C
b0100 D
1E
b00000000000000000000000000001000 N
b01 O
b00 P
b10 Q
b01 R
b10 S
b01 T
b01 V
b10 Y
b00 Z
b11 [
b10 \
0]
b10 ^
b01 _
0`
b11 a
b10 b
0c
b00 d
1g
0h
b10 i
b11 j
1k
#50000
0k
#55000
b00 -
b00 .
b01 /
b01 0
b10 1
02
04
16
17
1:
0;
0<
1=
0B
b0100 C
b0101 D
1F
b10 U
b00 V
b00 X
b10 Z
b11 ^
b00 _
b10 d
b10 e
1h
b11 i
b01 j
1k
#60000
0k
#65000
b01 -
b01 .
b00 /
b10 0
b01 1
12
14
06
07
0:
1;
1<
0=
1B
b0101 C
b0110 D
0E
1G
b00 O
b01 P
b01 Q
b10 R
b00 T
b10 V
b11 X
b00 Y
b11 Z
b10 [
1]
b11 _
1`
b00 b
b11 d
b11 e
0g
b01 i
b10 j
1k
#70000
0k
#75000
b0110 C
b0111 D
1E
0F
1H
b01 O
b00 P
b10 Q
b01 R
b11 T
b00 U
b11 V
b11 W
b10 X
b11 Y
b00 Z
b11 [
b11 \
b10 ^
b11 b
1c
b00 d
1g
0h
b10 i
b11 j
1k
#80000
0k
#85000
b00 -
b00 .
b01 /
b01 0
b10 1
02
04
16
17
1:
0;
0<
1=
0B
b0111 C
b1000 D
1F
0G
1I
b11 S
b10 T
b11 U
b00 V
b00 X
b10 Z
b11 ^
b00 _
0`
b11 d
b10 e
0f
1h
b11 i
b01 j
1k
#90000
0k
#95000
b11 -
b10 .
b00 1
12
13
15
06
09
0=
1B
b1000 C
b1001 D
0E
1G
0H
1J
b00 O
b01 P
b01 Q
b10 R
b00 T
b10 V
b10 W
b11 X
b00 Y
b11 Z
b10 \
0]
b11 _
1`
b00 b
0c
b11 e
1f
0g
b01 i
b10 j
1k
#100000
0k
#105000
0>
1@
0B
b0000 C
b0001 D
1E
0F
1H
0I
1K
b10 O
b00 R
b10 S
b11 T
b00 U
b11 V
b11 W
b01 X
b10 Y
b01 Z
b11 \
1]
b01 ^
b10 a
b11 b
1c
b01 d
b10 i
b01 j
1k
#110000
0k
#115000
b11011010 +
1,
1>
0?
0@
1A
b0001 C
b0010 D
0E
1F
0G
1I
0J
1L
b01 i
1k
#120000
0k
#125000
b00000000 +
0,
0>
0A
b0000 C
b0001 D
0F
0H
0I
0K
0L
b00 O
b00 P
b00 Q
b00 S
b11 U
b00 W
b11 X
b00 Y
b11 Z
b00 [
b11 ^
b00 a
b11 d
1g
b00 i
b00 j
1k
0l
#130000
0k
#135000
1>
b0001 C
b0010 D
1k
1l
#140000
0k
#145000
b10 $
b00 %
b10 &
b00 '
b10 (
b10 -
b01 .
b10 /
b00 0
b01 1
02
14
05
16
07
18
0:
1<
1?
1B
b0010 C
b0011 D
b10 O
b01 P
b01 Q
b00 U
b10 W
b01 X
b01 Z
b10 [
b01 ^
b01 d
0g
b10 j
1k
b1110001000100011 n
#150000
0k
#155000
b00 -
b00 .
b01 /
b01 0
b10 1
03
04
17
08
19
1:
0<
1=
0B
b0011 C
b0100 D
1E
b01 O
b10 P
b00 Q
b01 R
b10 S
b01 T
b01 V
b00 X
b10 Y
b11 [
b10 \
0]
b00 ^
b11 a
b10 b
0c
b10 d
b01 e
0f
1g
b10 i
b01 j
1k
#160000
0k
#165000
b10 -
b01 .
b10 /
b00 0
b01 1
13
14
07
18
09
0:
1<
0=
1B
b0100 C
b0101 D
0E
1F
b00 O
b01 P
b01 Q
b10 R
b00 T
b10 U
b10 X
b00 Y
b10 Z
b10 [
1]
b11 ^
b10 _
0`
b00 b
b11 d
b10 e
0g
b01 i
b10 j
1k
#170000
0k
#175000
b00 -
b00 .
b01 /
b01 0
b10 1
03
04
17
08
19
1:
0<
1=
0B
b0101 C
b0110 D
1E
0F
1G
b01 O
b10 P
b00 Q
b01 R
b10 T
b00 U
b10 V
b11 W
b00 X
b11 Y
b11 [
b11 \
b00 ^
b11 _
1`
b11 b
1c
b10 d
1f
1g
b10 i
b01 j
1k
#180000
0k
#185000
b10 -
b01 .
b10 /
b00 0
b01 1
13
14
07
18
09
0:
1<
0=
1B
b0110 C
b0111 D
0E
1F
0G
1H
b00 O
b01 P
b01 Q
b10 R
b11 S
b00 T
b11 U
b10 W
b11 X
b00 Y
b11 Z
b10 \
0]
b11 ^
b00 b
0c
b11 d
b11 e
0g
b01 i
b10 j
1k
#190000
0k
#195000
b00 -
b00 .
b01 /
b01 0
b10 1
03
04
17
08
19
1:
0<
1=
0B
b0111 C
b1000 D
1E
0F
1G
0H
1I
b01 O
b10 P
b00 Q
b01 R
b10 S
b11 T
b00 U
b11 V
b11 W
b00 X
b11 Y
b10 Z
b11 \
1]
b00 ^
b11 b
1c
b10 d
1g
b10 i
b01 j
1k
#200000
0k
#205000
b11 -
b10 .
b00 1
12
13
15
06
09
0=
1B
b1000 C
b1001 D
0E
1F
0G
1H
0I
1J
b00 O
b01 P
b01 Q
b10 R
b11 S
b00 T
b11 U
b10 V
b10 W
b11 X
b00 Y
b11 Z
b10 \
0]
b11 ^
b00 b
0c
b11 d
0g
b01 i
b10 j
1k
#210000
0k
#215000
0>
1@
0B
b0000 C
b0001 D
1E
0F
1G
0H
1I
0J
1K
b10 O
b00 R
b10 S
b11 T
b00 U
b11 V
b11 W
b01 X
b10 Y
b01 Z
b11 \
1]
b01 ^
b10 a
b11 b
1c
b01 d
b10 i
b01 j
1k
#220000
0k
#225000
b10101010 +
1,
1>
0?
0@
1A
b0001 C
b0010 D
0E
1F
0G
1H
0I
1J
0K
1L
b01 i
1k
#230000
0k
#235000
b00000000 +
0,
0>
0A
b0000 C
b0001 D
0F
0H
0J
0L
b00 O
b00 P
b00 Q
b00 S
b11 U
b00 W
b11 X
b00 Y
b11 Z
b00 [
b11 ^
b00 a
b11 d
1g
b00 i
b00 j
1k
0l
#240000
0k
#245000
1>
b0001 C
b0010 D
1k
1l
#250000
0k
#255000
b00 #
b00 $
b00 &
b00 (
b01 )
b00 -
b00 .
b10 1
02
03
05
16
19
1=
1?
b0010 C
b0011 D
b01 P
b01 Q
b10 R
b00 U
b01 X
b10 Y
b01 Z
b01 ^
b10 a
b01 d
1k
b0000000000000111 n
#260000
0k
#265000
b0011 C
b0100 D
b01 T
b10 U
b01 V
b10 X
b01 Y
b10 Z
b11 ^
b10 _
0`
b01 b
0c
b11 d
b10 e
0f
1k
#270000
0k
#275000
b0100 C
b0101 D
b10 T
b01 U
b10 V
b10 Y
b10 ^
b11 _
1`
b10 b
1c
b10 d
b11 e
1f
1k
#280000
0k
#285000
b0101 C
b0110 D
b10 U
b11 X
b11 Z
b11 ^
b11 d
1k
#290000
0k
#295000
b0110 C
b0111 D
b11 T
b11 V
b11 b
1k
#300000
0k
#305000
b01 -
b01 .
b00 /
b10 0
b01 1
12
14
06
07
0:
1;
1<
0=
b0111 C
b1000 D
1k
#310000
0k
#315000
b11 -
b10 .
b01 /
b01 0
b00 1
13
04
15
17
09
1:
0;
0<
b1000 C
b1001 D
b01 O
b00 P
b10 Q
b01 R
b01 W
b01 Y
b10 Z
b01 [
b01 a
b10 d
0h
1k
#320000
0k
#325000
0>
1@
1B
b0000 C
b0001 D
b10 O
b01 P
b01 Q
b00 R
b01 S
b01 U
b10 V
b11 W
b10 X
b11 [
b10 ^
0g
1h
b10 j
1k
#330000
0k
#335000
b00000001 +
1,
b00 -
b00 .
b10 1
02
03
05
16
19
1=
1>
0?
0@
1A
b0001 C
b0010 D
1E
b10 i
1k
#340000
0k
#345000
b00000000 +
0,
0>
0A
0B
b0000 C
b0001 D
0E
b00 O
b00 P
b00 Q
b00 S
b11 U
b11 V
b00 W
b11 X
b00 Y
b11 Z
b00 [
b11 ^
b00 a
b11 d
1g
b00 i
b00 j
1k
0l
#350000
0k
#355000
1>
b0001 C
b0010 D
1k
1l
#360000
0k
#365000
b11 %
b01 &
b01 '
b11 (
b11 )
b01 *
1?
b0010 C
b0011 D
b01 P
b01 Q
b10 R
b00 U
b01 X
b10 Y
b01 Z
b01 ^
b10 a
b01 d
1k
b0000110101111101 n
#370000
0k
#375000
b11 -
b10 .
b00 1
12
13
15
06
09
0=
b0011 C
b0100 D
b01 T
b10 U
b01 V
b10 X
b01 Y
b10 Z
b11 ^
b10 _
0`
b01 b
0c
b11 d
b10 e
0f
1k
#380000
0k
#385000
b01 -
b01 .
b00 /
b10 0
b01 1
03
14
05
07
19
0:
1;
1<
1B
b0100 C
b0101 D
b10 O
b00 R
b10 T
b01 U
b10 V
b10 W
b00 Y
b10 [
b10 \
b10 ^
b11 _
1`
b00 a
b11 b
1c
b10 d
b11 e
1f
0g
b10 j
1k
#390000
0k
#395000
b0101 C
b0110 D
1E
b01 O
b00 P
b10 Q
b01 R
b10 S
b00 U
b11 W
b11 Y
b00 Z
b11 [
b11 \
b10 _
b11 a
b00 d
1g
0h
b10 i
b11 j
1k
#400000
0k
#405000
b11 -
b10 .
b01 /
b01 0
b00 1
13
04
15
17
09
1:
0;
0<
0B
b0110 C
b0111 D
1F
b11 S
b11 U
b00 V
b00 X
b10 Z
b11 ^
b00 _
0`
b11 d
b10 e
0f
1h
b11 i
b01 j
1k
#410000
0k
#415000
b0111 C
b1000 D
0E
1G
b10 O
b01 P
b01 Q
b00 R
b00 T
b10 V
b00 W
b11 X
b10 Y
b11 Z
b00 \
0]
b11 _
1`
b10 b
0c
b11 e
1f
b01 i
b00 j
1k
#420000
0k
#425000
b01 -
b01 .
b00 /
b10 0
b01 1
03
14
05
07
19
0:
1;
1<
1B
b1000 C
b1001 D
0F
1H
b00 S
b11 T
b10 U
b11 V
b10 W
b00 Y
b10 [
b11 \
1]
b00 a
b11 b
1c
0g
b00 i
b10 j
1k
#430000
0k
#435000
0>
1@
b0000 C
b0001 D
1E
0G
1I
b01 O
b00 P
b10 Q
b01 R
b10 S
b00 U
b11 W
b10 X
b11 Y
b00 Z
b11 [
b10 ^
b11 a
b00 d
1g
0h
b10 i
b11 j
1k
#440000
0k
#445000
b00110011 +
1,
b00 -
b00 .
b01 /
b01 0
b10 1
02
04
16
17
1:
0;
0<
1=
1>
0?
0@
1A
b0001 C
b0010 D
1F
0H
1J
b11 i
1k
#450000
0k
#455000
b00000000 +
0,
1?
0A
0B
b0010 C
b0011 D
b00 O
b01 P
b01 Q
b10 R
b11 S
b10 T
b11 U
b00 V
b01 X
b10 Y
b01 Z
b11 ^
b01 _
0`
b10 b
0c
b11 d
b01 e
0f
0g
1h
b01 j
1k
#460000
0k
#465000
b11 -
b10 .
b00 1
12
13
15
06
09
0=
1B
b0011 C
b0100 D
0E
1G
0I
1K
b01 T
b10 U
b01 V
b10 X
b01 Y
b10 Z
b10 _
b01 b
b10 e
b01 i
b10 j
1k
#470000
0k
#475000
b01 -
b01 .
b00 /
b10 0
b01 1
03
14
05
07
19
0:
1;
1<
0B
b0100 C
b0101 D
1E
0F
1H
0J
1L
b10 O
b00 R
b10 T
b01 U
b10 V
b10 W
b11 Y
b10 \
0]
b10 ^
b11 _
1`
b11 b
1c
b10 d
b11 e
1f
1g
b10 i
b01 j
1k
#480000
0k
#485000
b0101 C
b0110 D
0E
1F
0G
1I
0K
b01 O
b00 P
b10 Q
b01 R
b10 S
b11 U
b11 W
b11 Z
b11 \
1]
b11 ^
b10 _
0`
b11 d
b01 i
b00 j
1k
#490000
0k
#495000
b11 -
b10 .
b01 /
b01 0
b00 1
13
04
15
17
09
1:
0;
0<
b0110 C
b0111 D
0F
1G
0H
1J
0L
b11 S
b11 V
b11 X
b11 _
1`
b00 i
1k
#500000
0k
#505000
b0111 C
b1000 D
0G
1H
0I
1K
b10 O
b01 P
b01 Q
b00 R
b11 T
1k
#510000
0k
#515000
b01 -
b01 .
b00 /
b10 0
b01 1
03
14
05
07
19
0:
1;
1<
b1000 C
b1001 D
0H
1I
0J
1L
1k
#520000
0k
#525000
0>
1@
b0000 C
b0001 D
0I
1J
0K
b01 O
b00 P
b10 Q
b01 R
1k
#530000
0k
#535000
b01000000 +
1,
b00 -
b00 .
b01 /
b01 0
b10 1
02
04
16
17
1:
0;
0<
1=
1>
0?
0@
1A
b0001 C
b0010 D
0J
1K
0L
1k
#540000
0k
#545000
b00000000 +
0,
1?
0A
b0010 C
b0011 D
b00 O
b01 P
b01 Q
b10 R
1k
