03_verif/Testcase1/tb_Testcase1.vcd
$version Generated by VerilatedVcd $end
$timescale 1ps $end
 $scope module TOP $end
  $var wire 1 %! Input_interface_block.i_clk $end
  $var wire 1 &! Input_interface_block.i_rst_n $end
  $var wire 1 '! Input_interface_block.i_start $end
  $var wire 16 (! Input_interface_block.i_data [15:0] $end
  $var wire 2 )! Input_interface_block.o_data [1:0] $end
  $var wire 1 *! Input_interface_block.o_valid $end
  $var wire 1 +! o_stop $end
  $var wire 1 ,! Output_interface_block.i_clk $end
  $var wire 1 -! Output_interface_block.i_rst_n $end
  $var wire 1 .! Output_interface_block.i_start $end
  $var wire 1 /! i_valid $end
  $var wire 1 0! Output_interface_block.i_data [0:0] $end
  $var wire 8 1! Output_interface_block.o_data [7:0] $end
  $var wire 1 2! Output_interface_block.o_valid $end
  $scope module Input_interface_block $end
   $var wire 32 ;! SIZE_IN [31:0] $end
   $var wire 32 <! SIZE_OUT [31:0] $end
   $var wire 1 %! i_clk $end
   $var wire 1 &! i_rst_n $end
   $var wire 1 '! i_start $end
   $var wire 16 (! i_data [15:0] $end
   $var wire 2 )! o_data [1:0] $end
   $var wire 1 *! o_valid $end
   $var wire 1 +! o_stop $end
   $var wire 4 3! state [3:0] $end
   $scope module nsb $end
    $var wire 1 %! i_clk $end
    $var wire 1 &! i_rst_n $end
    $var wire 1 '! i_start $end
    $var wire 4 3! o_state [3:0] $end
    $var wire 1 *! o_valid $end
    $var wire 1 +! o_stop $end
    $var wire 4 3! state [3:0] $end
    $var wire 4 4! nstate [3:0] $end
   $upscope $end
   $scope module ob $end
    $var wire 32 ;! SIZE_IN [31:0] $end
    $var wire 32 <! SIZE_OUT [31:0] $end
    $var wire 4 3! i_state [3:0] $end
    $var wire 16 (! i_data [15:0] $end
    $var wire 2 )! o_data [1:0] $end
    $var wire 2 # shift_reg[0] [1:0] $end
    $var wire 2 $ shift_reg[1] [1:0] $end
    $var wire 2 % shift_reg[2] [1:0] $end
    $var wire 2 & shift_reg[3] [1:0] $end
    $var wire 2 ' shift_reg[4] [1:0] $end
    $var wire 2 ( shift_reg[5] [1:0] $end
    $var wire 2 ) shift_reg[6] [1:0] $end
    $var wire 2 * shift_reg[7] [1:0] $end
   $upscope $end
  $upscope $end
  $scope module Output_interface_block $end
   $var wire 32 =! SIZE_IN [31:0] $end
   $var wire 32 >! SIZE_OUT [31:0] $end
   $var wire 1 ,! i_clk $end
   $var wire 1 -! i_rst_n $end
   $var wire 1 .! i_start $end
   $var wire 1 /! i_valid $end
   $var wire 1 0! i_data [0:0] $end
   $var wire 8 1! o_data [7:0] $end
   $var wire 1 2! o_valid $end
   $var wire 1 y shift_reg[0] [0:0] $end
   $var wire 1 z shift_reg[1] [0:0] $end
   $var wire 1 { shift_reg[2] [0:0] $end
   $var wire 1 | shift_reg[3] [0:0] $end
   $var wire 1 } shift_reg[4] [0:0] $end
   $var wire 1 ~ shift_reg[5] [0:0] $end
   $var wire 1 !! shift_reg[6] [0:0] $end
   $var wire 1 "! shift_reg[7] [0:0] $end
   $scope module unnamedblk1 $end
    $var wire 32 #! i [31:0] $end
   $upscope $end
   $scope module unnamedblk2 $end
    $var wire 32 $! i [31:0] $end
   $upscope $end
  $upscope $end
  $scope module tb_Testcase1 $end
   $var wire 1 5! i_clk $end
   $var wire 1 6! i_rst_n $end
   $var wire 1 7! i_start $end
   $var wire 16 8! i_data [15:0] $end
   $var wire 8 6 o_data [7:0] $end
   $var wire 1 7 o_valid $end
   $scope module dut $end
    $var wire 32 ;! SIZE_DATA_IN [31:0] $end
    $var wire 32 >! SIZE_DATA_OUT [31:0] $end
    $var wire 32 <! SIZE_PISO [31:0] $end
    $var wire 32 =! SIZE_SIPO [31:0] $end
    $var wire 1 5! i_clk $end
    $var wire 1 6! i_rst_n $end
    $var wire 1 7! i_start $end
    $var wire 16 8! i_data [15:0] $end
    $var wire 8 6 o_data [7:0] $end
    $var wire 1 7 o_done $end
    $var wire 2 8 w_data_PISO [1:0] $end
    $var wire 1 9 w_valid_PISO $end
    $var wire 1 : w_valid_VD $end
    $var wire 1 ; w_data_SIPO [0:0] $end
    $var wire 1 7 w_done_SIPO $end
    $scope module PISO_unit $end
     $var wire 32 ;! SIZE_DATA_IN [31:0] $end
     $var wire 32 <! SIZE_DATA_OUT [31:0] $end
     $var wire 1 5! i_clk $end
     $var wire 1 6! i_rst_n $end
     $var wire 1 7! i_start $end
     $var wire 16 8! i_data [15:0] $end
     $var wire 2 8 o_data [1:0] $end
     $var wire 1 9 o_valid $end
     $var wire 1 < o_done $end
     $var wire 32 >! DEPTH [31:0] $end
     $var wire 32 ?! SIZE_DEPTH [31:0] $end
     $var wire 2 + shift_reg[0] [1:0] $end
     $var wire 2 , shift_reg[1] [1:0] $end
     $var wire 2 - shift_reg[2] [1:0] $end
     $var wire 2 . shift_reg[3] [1:0] $end
     $var wire 2 / shift_reg[4] [1:0] $end
     $var wire 2 0 shift_reg[5] [1:0] $end
     $var wire 2 1 shift_reg[6] [1:0] $end
     $var wire 2 2 shift_reg[7] [1:0] $end
     $var wire 3 = count [2:0] $end
     $var wire 3 9! ncount [2:0] $end
     $var wire 1 3 w_update_count $end
     $var wire 1 > w_count $end
     $var wire 1 4 w_count_next $end
     $var wire 16 5 w_idata [15:0] $end
     $var wire 16 ? w_idata_next [15:0] $end
     $var wire 1 :! w_update_idata $end
     $var wire 2 @ w_output [1:0] $end
     $var wire 1 4 w_ovalid $end
     $var wire 1 A w_done $end
    $upscope $end
    $scope module SIPO_unit $end
     $var wire 32 =! SIZE_DATA_IN [31:0] $end
     $var wire 32 >! SIZE_DATA_OUT [31:0] $end
     $var wire 1 5! i_clk $end
     $var wire 1 6! i_rst_n $end
     $var wire 1 : i_start $end
     $var wire 1 ; i_data [0:0] $end
     $var wire 8 6 o_data [7:0] $end
     $var wire 1 7 o_done $end
     $var wire 32 >! SIZE_DEPTH [31:0] $end
     $var wire 1 B shift_reg[0] [0:0] $end
     $var wire 1 C shift_reg[1] [0:0] $end
     $var wire 1 D shift_reg[2] [0:0] $end
     $var wire 1 E shift_reg[3] [0:0] $end
     $var wire 1 F shift_reg[4] [0:0] $end
     $var wire 1 G shift_reg[5] [0:0] $end
     $var wire 1 H shift_reg[6] [0:0] $end
     $var wire 1 I shift_reg[7] [0:0] $end
     $var wire 8 J count [7:0] $end
     $var wire 8 K w_odata [7:0] $end
     $var wire 8 L w_odata_next [7:0] $end
     $scope module unnamedblk1 $end
      $var wire 32 M i [31:0] $end
     $upscope $end
     $scope module unnamedblk2 $end
      $var wire 32 N i [31:0] $end
     $upscope $end
     $scope module unnamedblk3 $end
      $var wire 32 O i [31:0] $end
     $upscope $end
    $upscope $end
    $scope module VD_unit $end
     $var wire 1 5! i_clk $end
     $var wire 1 6! i_rst_n $end
     $var wire 1 9 i_valid $end
     $var wire 2 8 i_data [1:0] $end
     $var wire 1 ; o_decision $end
     $var wire 1 : o_valid $end
     $var wire 2 P w_oBM_0 [1:0] $end
     $var wire 2 Q w_oBM_1 [1:0] $end
     $var wire 2 R w_oBM_2 [1:0] $end
     $var wire 2 S w_oBM_3 [1:0] $end
     $var wire 2 T w_iPM_0 [1:0] $end
     $var wire 2 U w_iPM_1 [1:0] $end
     $var wire 2 V w_iPM_2 [1:0] $end
     $var wire 2 W w_iPM_3 [1:0] $end
     $var wire 2 X w_oPM_0 [1:0] $end
     $var wire 2 Y w_oPM_1 [1:0] $end
     $var wire 2 Z w_oPM_2 [1:0] $end
     $var wire 2 [ w_oPM_3 [1:0] $end
     $scope module ACSU $end
      $var wire 2 P i_BM_0 [1:0] $end
      $var wire 2 Q i_BM_1 [1:0] $end
      $var wire 2 R i_BM_2 [1:0] $end
      $var wire 2 S i_BM_3 [1:0] $end
      $var wire 2 T i_PM_0 [1:0] $end
      $var wire 2 U i_PM_1 [1:0] $end
      $var wire 2 V i_PM_2 [1:0] $end
      $var wire 2 W i_PM_3 [1:0] $end
      $var wire 2 X o_PM_0 [1:0] $end
      $var wire 2 Y o_PM_1 [1:0] $end
      $var wire 2 Z o_PM_2 [1:0] $end
      $var wire 2 [ o_PM_3 [1:0] $end
      $var wire 2 X w_PM_0 [1:0] $end
      $var wire 2 Y w_PM_1 [1:0] $end
      $var wire 2 Z w_PM_2 [1:0] $end
      $var wire 2 [ w_PM_3 [1:0] $end
      $scope module ACS_0 $end
       $var wire 2 P i_BM_0 [1:0] $end
       $var wire 2 S i_BM_1 [1:0] $end
       $var wire 2 T i_PM_0 [1:0] $end
       $var wire 2 U i_PM_1 [1:0] $end
       $var wire 2 X o_PM [1:0] $end
       $var wire 2 \ w_metric_path_0 [1:0] $end
       $var wire 2 ] w_metric_path_1 [1:0] $end
       $var wire 1 ^ w_compare_less $end
       $scope module ADD0 $end
        $var wire 2 P i_BM [1:0] $end
        $var wire 2 T i_PM [1:0] $end
        $var wire 2 \ o_PM [1:0] $end
       $upscope $end
       $scope module ADD1 $end
        $var wire 2 S i_BM [1:0] $end
        $var wire 2 U i_PM [1:0] $end
        $var wire 2 ] o_PM [1:0] $end
       $upscope $end
       $scope module CP $end
        $var wire 2 \ i_metric_path_0 [1:0] $end
        $var wire 2 ] i_metric_path_1 [1:0] $end
        $var wire 1 ^ o_compare_less $end
       $upscope $end
      $upscope $end
      $scope module ACS_1 $end
       $var wire 2 R i_BM_0 [1:0] $end
       $var wire 2 Q i_BM_1 [1:0] $end
       $var wire 2 V i_PM_0 [1:0] $end
       $var wire 2 W i_PM_1 [1:0] $end
       $var wire 2 Y o_PM [1:0] $end
       $var wire 2 _ w_metric_path_0 [1:0] $end
       $var wire 2 ` w_metric_path_1 [1:0] $end
       $var wire 1 a w_compare_less $end
       $scope module ADD0 $end
        $var wire 2 R i_BM [1:0] $end
        $var wire 2 V i_PM [1:0] $end
        $var wire 2 _ o_PM [1:0] $end
       $upscope $end
       $scope module ADD1 $end
        $var wire 2 Q i_BM [1:0] $end
        $var wire 2 W i_PM [1:0] $end
        $var wire 2 ` o_PM [1:0] $end
       $upscope $end
       $scope module CP $end
        $var wire 2 _ i_metric_path_0 [1:0] $end
        $var wire 2 ` i_metric_path_1 [1:0] $end
        $var wire 1 a o_compare_less $end
       $upscope $end
      $upscope $end
      $scope module ACS_2 $end
       $var wire 2 S i_BM_0 [1:0] $end
       $var wire 2 P i_BM_1 [1:0] $end
       $var wire 2 T i_PM_0 [1:0] $end
       $var wire 2 U i_PM_1 [1:0] $end
       $var wire 2 Z o_PM [1:0] $end
       $var wire 2 b w_metric_path_0 [1:0] $end
       $var wire 2 c w_metric_path_1 [1:0] $end
       $var wire 1 d w_compare_less $end
       $scope module ADD0 $end
        $var wire 2 S i_BM [1:0] $end
        $var wire 2 T i_PM [1:0] $end
        $var wire 2 b o_PM [1:0] $end
       $upscope $end
       $scope module ADD1 $end
        $var wire 2 P i_BM [1:0] $end
        $var wire 2 U i_PM [1:0] $end
        $var wire 2 c o_PM [1:0] $end
       $upscope $end
       $scope module CP $end
        $var wire 2 b i_metric_path_0 [1:0] $end
        $var wire 2 c i_metric_path_1 [1:0] $end
        $var wire 1 d o_compare_less $end
       $upscope $end
      $upscope $end
      $scope module ACS_3 $end
       $var wire 2 Q i_BM_0 [1:0] $end
       $var wire 2 R i_BM_1 [1:0] $end
       $var wire 2 V i_PM_0 [1:0] $end
       $var wire 2 W i_PM_1 [1:0] $end
       $var wire 2 [ o_PM [1:0] $end
       $var wire 2 e w_metric_path_0 [1:0] $end
       $var wire 2 f w_metric_path_1 [1:0] $end
       $var wire 1 g w_compare_less $end
       $scope module ADD0 $end
        $var wire 2 Q i_BM [1:0] $end
        $var wire 2 V i_PM [1:0] $end
        $var wire 2 e o_PM [1:0] $end
       $upscope $end
       $scope module ADD1 $end
        $var wire 2 R i_BM [1:0] $end
        $var wire 2 W i_PM [1:0] $end
        $var wire 2 f o_PM [1:0] $end
       $upscope $end
       $scope module CP $end
        $var wire 2 e i_metric_path_0 [1:0] $end
        $var wire 2 f i_metric_path_1 [1:0] $end
        $var wire 1 g o_compare_less $end
       $upscope $end
      $upscope $end
     $upscope $end
     $scope module BMU $end
      $var wire 32 <! SIZE_DATA [31:0] $end
      $var wire 2 8 i_data [1:0] $end
      $var wire 2 P o_BM_0 [1:0] $end
      $var wire 2 Q o_BM_1 [1:0] $end
      $var wire 2 R o_BM_2 [1:0] $end
      $var wire 2 S o_BM_3 [1:0] $end
      $var wire 2 P w_BM_0 [1:0] $end
      $var wire 2 Q w_BM_1 [1:0] $end
      $var wire 2 R w_BM_2 [1:0] $end
      $var wire 2 S w_BM_3 [1:0] $end
      $scope module HD0 $end
       $var wire 2 8 i_data [1:0] $end
       $var wire 2 @! i_exp_code [1:0] $end
       $var wire 2 P o_hamming_distance [1:0] $end
       $var wire 1 h w_data_0 $end
       $var wire 1 i w_data_1 $end
       $scope module FA $end
        $var wire 1 h i_a $end
        $var wire 1 i i_b $end
        $var wire 1 A! i_c $end
        $var wire 1 j o_s $end
        $var wire 1 k o_c $end
       $upscope $end
      $upscope $end
      $scope module HD1 $end
       $var wire 2 8 i_data [1:0] $end
       $var wire 2 B! i_exp_code [1:0] $end
       $var wire 2 Q o_hamming_distance [1:0] $end
       $var wire 1 l w_data_0 $end
       $var wire 1 i w_data_1 $end
       $scope module FA $end
        $var wire 1 l i_a $end
        $var wire 1 i i_b $end
        $var wire 1 A! i_c $end
        $var wire 1 m o_s $end
        $var wire 1 n o_c $end
       $upscope $end
      $upscope $end
      $scope module HD2 $end
       $var wire 2 8 i_data [1:0] $end
       $var wire 2 C! i_exp_code [1:0] $end
       $var wire 2 R o_hamming_distance [1:0] $end
       $var wire 1 h w_data_0 $end
       $var wire 1 o w_data_1 $end
       $scope module FA $end
        $var wire 1 h i_a $end
        $var wire 1 o i_b $end
        $var wire 1 A! i_c $end
        $var wire 1 p o_s $end
        $var wire 1 q o_c $end
       $upscope $end
      $upscope $end
      $scope module HD3 $end
       $var wire 2 8 i_data [1:0] $end
       $var wire 2 D! i_exp_code [1:0] $end
       $var wire 2 S o_hamming_distance [1:0] $end
       $var wire 1 l w_data_0 $end
       $var wire 1 o w_data_1 $end
       $scope module FA $end
        $var wire 1 l i_a $end
        $var wire 1 o i_b $end
        $var wire 1 A! i_c $end
        $var wire 1 r o_s $end
        $var wire 1 s o_c $end
       $upscope $end
      $upscope $end
     $upscope $end
     $scope module PMU $end
      $var wire 32 <! SIZE_DATA [31:0] $end
      $var wire 1 5! i_clk $end
      $var wire 1 6! i_rst_n $end
      $var wire 1 9 i_valid $end
      $var wire 2 X i_PM_0 [1:0] $end
      $var wire 2 Y i_PM_1 [1:0] $end
      $var wire 2 Z i_PM_2 [1:0] $end
      $var wire 2 [ i_PM_3 [1:0] $end
      $var wire 2 T o_PM_0 [1:0] $end
      $var wire 2 U o_PM_1 [1:0] $end
      $var wire 2 V o_PM_2 [1:0] $end
      $var wire 2 W o_PM_3 [1:0] $end
     $upscope $end
     $scope module SPMU $end
      $var wire 1 5! i_clk $end
      $var wire 1 6! i_rst_n $end
      $var wire 1 9 i_valid $end
      $var wire 2 X i_PM_0 [1:0] $end
      $var wire 2 Y i_PM_1 [1:0] $end
      $var wire 2 Z i_PM_2 [1:0] $end
      $var wire 2 [ i_PM_3 [1:0] $end
      $var wire 1 ; o_decision $end
      $var wire 1 : o_valid $end
      $var wire 1 t w_compare_0 $end
      $var wire 1 u w_compare_1 $end
      $scope module CP0 $end
       $var wire 2 X i_metric_path_0 [1:0] $end
       $var wire 2 Z i_metric_path_1 [1:0] $end
       $var wire 1 t o_compare_less $end
      $upscope $end
      $scope module CP1 $end
       $var wire 2 Y i_metric_path_0 [1:0] $end
       $var wire 2 [ i_metric_path_1 [1:0] $end
       $var wire 1 u o_compare_less $end
      $upscope $end
      $scope module u_state_machine $end
       $var wire 1 5! i_clk $end
       $var wire 1 6! i_rst_n $end
       $var wire 1 9 i_valid $end
       $var wire 1 t i_compare_0 $end
       $var wire 1 u i_compare_1 $end
       $var wire 1 ; o_decision $end
       $var wire 1 : o_valid $end
       $var wire 2 v state [1:0] $end
       $var wire 2 w nstate [1:0] $end
       $var wire 1 x w_valid $end
       $scope module NSL $end
        $var wire 1 9 i_valid $end
        $var wire 1 t i_compare_0 $end
        $var wire 1 u i_compare_1 $end
        $var wire 2 v i_pre_state [1:0] $end
        $var wire 2 w o_next_state [1:0] $end
        $var wire 1 x o_valid $end
        $var wire 2 @! S0 [1:0] $end
        $var wire 2 B! S1 [1:0] $end
        $var wire 2 C! S2 [1:0] $end
        $var wire 2 D! S3 [1:0] $end
       $upscope $end
       $scope module OL $end
        $var wire 2 v i_curr_state [1:0] $end
        $var wire 1 ; o_decision_bit $end
        $var wire 2 @! S0 [1:0] $end
        $var wire 2 B! S1 [1:0] $end
        $var wire 2 C! S2 [1:0] $end
        $var wire 2 D! S3 [1:0] $end
       $upscope $end
       $scope module SM $end
        $var wire 1 5! i_clk $end
        $var wire 1 6! i_rst_n $end
        $var wire 1 x i_valid $end
        $var wire 2 w i_next_state [1:0] $end
        $var wire 2 v o_curr_state [1:0] $end
        $var wire 1 : o_valid $end
        $var wire 2 @! S0 [1:0] $end
       $upscope $end
      $upscope $end
     $upscope $end
    $upscope $end
   $upscope $end
  $upscope $end
 $upscope $end
$enddefinitions $end


#0
b00 #
b00 $
b00 %
b00 &
b00 '
b00 (
b00 )
b00 *
b00 +
b00 ,
b00 -
b00 .
b00 /
b00 0
b00 1
b00 2
03
04
b0000000000000000 5
b00000000 6
07
b00 8
09
0:
0;
0<
b000 =
0>
b0000000000000000 ?
b00 @
0A
0B
0C
0D
0E
0F
0G
0H
0I
b00000000 J
b00000000 K
b00000000 L
b00000000000000000000000000000000 M
b00000000000000000000000000000000 N
b00000000000000000000000000000000 O
b00 P
b01 Q
b01 R
b10 S
b00 T
b00 U
b00 V
b00 W
b00 X
b01 Y
b00 Z
b01 [
b00 \
b10 ]
1^
b01 _
b01 `
1a
b10 b
b00 c
0d
b01 e
b01 f
1g
0h
0i
0j
0k
1l
1m
0n
1o
1p
0q
0r
1s
1t
1u
b00 v
b00 w
0x
0y
0z
0{
0|
0}
0~
0!!
0"!
b00000000000000000000000000000000 #!
b00000000000000000000000000000000 $!
0%!
0&!
0'!
b0000000000000000 (!
b00 )!
0*!
0+!
0,!
0-!
0.!
0/!
00!
b00000000 1!
02!
b0000 3!
b0001 4!
05!
06!
07!
b0000000000000000 8!
b000 9!
0:!
b00000000000000000000000000010000 ;!
b00000000000000000000000000000010 <!
b00000000000000000000000000000001 =!
b00000000000000000000000000001000 >!
b00000000000000000000000000000011 ?!
b00 @!
0A!
b01 B!
b10 C!
b11 D!
#10000
b00000000000000000000000000001000 M
b11 U
b11 V
b11 W
b11 Y
b10 Z
b11 [
b11 ]
b11 _
b11 `
b11 c
1d
b11 e
b11 f
15!
#20000
13
05!
17!
1:!
#30000
15!
#40000
05!
16!
#50000
b11 +
b01 ,
b01 -
b01 /
b01 0
b10 2
14
b1101010001010010 5
1>
b1101010001010010 ?
b11 @
b00000000000000000000000000001000 O
15!
b1101010001010010 8!
b001 9!
0:!
#60000
05!
#70000
b11 8
19
b001 =
b10 P
b00 S
b10 X
b00 Z
b10 \
b00 b
1h
1i
1k
0l
0o
0s
0t
b10 w
1x
15!
b010 9!
#80000
05!
#90000
b01 8
1:
1;
b010 =
b01 @
b01 P
b00 Q
b10 R
b01 S
b10 T
b00 V
b11 X
b10 Y
b11 Z
b00 [
b11 \
b10 _
b11 b
b00 e
0i
1j
0k
0m
1o
0p
1q
1r
1t
0u
b10 v
b11 w
15!
b011 9!
#100000
05!
#110000
b011 =
1B
b00000001 J
b00000001 K
b00000000000000000000000000001000 N
b11 T
b10 U
b11 V
b00 W
b00 Y
b10 [
b11 _
b00 `
0a
b11 e
b10 f
0g
1u
b11 v
b01 w
15!
b100 9!
#120000
05!
#130000
b00 8
0;
b100 =
b00 @
1C
b00000010 J
b00000011 K
b00 P
b01 Q
b01 R
b10 S
b00 U
b10 W
b10 X
b11 Y
b00 Z
b11 [
b10 ]
0^
b11 `
1a
b00 c
0d
b11 f
1g
0h
0j
1l
1m
1p
0q
0r
1s
0t
b01 v
b10 w
15!
b101 9!
#140000
05!
#150000
b01 8
1;
b101 =
b01 @
0B
1D
b00000011 J
b00000110 K
b01 P
b00 Q
b10 R
b01 S
b10 T
b11 U
b00 V
b11 W
b11 X
b10 Y
b11 Z
b00 [
b11 ]
1^
b10 _
b11 c
1d
b00 e
1h
1j
0l
0m
0p
1q
1r
0s
1t
0u
b10 v
b11 w
15!
b110 9!
#160000
05!
#170000
b110 =
1B
0C
1E
b00000100 J
b00001101 K
b11 T
b10 U
b11 V
b00 W
b00 Y
b10 [
b11 _
b00 `
0a
b11 e
b10 f
0g
1u
b11 v
b01 w
15!
b111 9!
#180000
05!
#190000
b00 8
0;
b111 =
b00 @
1A
1C
0D
1F
b00000101 J
b00011011 K
b00 P
b01 Q
b01 R
b10 S
b00 U
b10 W
b10 X
b11 Y
b00 Z
b11 [
b10 ]
0^
b11 `
1a
b00 c
0d
b11 f
1g
0h
0j
1l
1m
1p
0q
0r
1s
0t
b01 v
b10 w
15!
b000 9!
#200000
05!
#210000
03
04
b10 8
1;
1<
b000 =
b10 @
0A
0B
1D
0E
1G
b00000110 J
b00110110 K
b01 P
b10 Q
b00 R
b01 S
b10 T
b11 U
b00 V
b11 W
b11 X
b00 Y
b11 Z
b10 [
b11 ]
1^
b00 _
b11 c
1d
b10 e
1i
1j
0m
1n
0o
0p
1r
0s
1t
b10 v
b01 w
15!
1:!
#220000
05!
#230000
13
b00 8
09
0;
0<
0>
b11 @
1B
0C
1E
0F
1H
b00000111 J
b01101101 K
b00 P
b01 Q
b01 R
b10 S
b11 T
b00 U
b11 V
b10 W
b10 X
b11 Y
b00 Z
b11 [
b10 ]
0^
b11 _
b00 c
0d
b11 e
0i
0j
1m
0n
1o
1p
0r
1s
0t
b01 v
0x
15!
#240000
05!
#250000
14
b11011010 6
17
0:
1>
0B
1C
0D
1F
0G
1I
b00001000 J
b11011010 K
15!
b001 9!
0:!
#260000
05!
#270000
b11 8
19
b001 =
b11011010 L
b10 P
b00 S
b00 X
b10 Z
b00 ]
b10 c
1h
1i
1k
0l
0o
0s
1t
b00 w
1x
15!
b010 9!
#271000
#280000
05!
#290000
b01 8
1:
b010 =
b01 @
b01 P
b00 Q
b10 R
b01 S
b00 T
b11 U
b10 V
b11 W
b01 X
b01 Z
b10 [
b01 \
b11 ]
1^
b01 b
b11 c
1d
b10 e
0i
1j
0k
0m
1o
0p
1q
1r
0u
b00 v
15!
b011 9!
#300000
05!
#310000
07
b011 =
0C
1D
0E
1G
0H
b00000000 J
b10110100 K
b01 T
b01 V
b10 W
b10 X
b10 Y
b10 Z
b01 [
b10 \
b10 `
0a
b10 b
b01 e
15!
b100 9!
#320000
05!
#330000
b00 8
b100 =
b00 @
0D
1E
0F
1H
0I
b00000001 J
b01101000 K
b00 P
b01 Q
b01 R
b10 S
b10 T
b10 U
b10 V
b01 W
b10 [
b11 b
b10 c
0d
b11 e
b10 f
0g
0h
0j
1l
1m
1p
0q
0r
1s
1u
15!
b101 9!
#340000
05!
#350000
b01 8
b101 =
b01 @
0E
1F
0G
1I
b00000010 J
b11010000 K
b01 P
b00 Q
b10 R
b01 S
b10 W
b11 X
b11 Z
b11 \
b11 c
1d
b10 e
b11 f
1g
1h
1j
0l
0m
0p
1q
1r
0s
15!
b110 9!
#360000
05!
#370000
b110 =
0F
1G
0H
b00000011 J
b10100000 K
b11 T
b11 V
b11 [
b11 e
15!
b111 9!
#371000
04
b00000000 6
b00 8
09
0:
b000 =
0>
b0000000000000000 ?
b00 @
0G
0I
b00000000 J
b00000000 K
b00000000 L
b00 P
b01 Q
b01 R
b10 S
b00 T
b11 U
b11 W
b00 X
b11 Y
b10 Z
b00 \
b11 `
1a
b10 b
0h
0j
1l
1m
1p
0q
0r
1s
0x
06!
b000 9!
1:!
#380000
05!
#381000
16!
#390000
b10 ,
b00 -
b10 .
b00 /
b10 0
14
b1110001000100010 5
1>
b1110001000100010 ?
b11 @
15!
b1110001000100010 8!
b001 9!
0:!
#400000
05!
#410000
b11 8
19
b001 =
b10 P
b00 S
b10 X
b00 Z
b10 \
b00 b
1h
1i
1k
0l
0o
0s
0t
b10 w
1x
15!
b010 9!
#420000
05!
#430000
b10 8
1:
1;
b010 =
b10 @
b01 P
b10 Q
b00 R
b01 S
b10 T
b00 V
b11 X
b00 Y
b11 Z
b10 [
b11 \
b00 _
b11 b
b10 e
0h
1j
0k
1l
0m
1n
0p
1r
1t
b10 v
b01 w
15!
b011 9!
#440000
05!
#450000
b00 8
0;
b011 =
b00 @
1B
b00000001 J
b00000001 K
b00 P
b01 Q
b01 R
b10 S
b11 T
b00 U
b11 V
b10 W
b10 X
b11 Y
b00 Z
b11 [
b10 ]
0^
b11 _
b00 c
0d
b11 e
0i
0j
1m
0n
1o
1p
0r
1s
0t
b01 v
b10 w
15!
b100 9!
#460000
05!
#470000
b10 8
1;
b100 =
b10 @
0B
1C
b00000010 J
b00000010 K
b01 P
b10 Q
b00 R
b01 S
b10 T
b11 U
b00 V
b11 W
b11 X
b00 Y
b11 Z
b10 [
b11 ]
1^
b00 _
b11 c
1d
b10 e
1i
1j
0m
1n
0o
0p
1r
0s
1t
b10 v
b01 w
15!
b101 9!
#480000
05!
#490000
b00 8
0;
b101 =
b00 @
1B
0C
1D
b00000011 J
b00000101 K
b00 P
b01 Q
b01 R
b10 S
b11 T
b00 U
b11 V
b10 W
b10 X
b11 Y
b00 Z
b11 [
b10 ]
0^
b11 _
b00 c
0d
b11 e
0i
0j
1m
0n
1o
1p
0r
1s
0t
b01 v
b10 w
15!
b110 9!
#500000
05!
#510000
b10 8
1;
b110 =
b10 @
0B
1C
0D
1E
b00000100 J
b00001010 K
b01 P
b10 Q
b00 R
b01 S
b10 T
b11 U
b00 V
b11 W
b11 X
b00 Y
b11 Z
b10 [
b11 ]
1^
b00 _
b11 c
1d
b10 e
1i
1j
0m
1n
0o
0p
1r
0s
1t
b10 v
b01 w
15!
b111 9!
#520000
05!
#530000
b00 8
0;
b111 =
b00 @
1A
1B
0C
1D
0E
1F
b00000101 J
b00010101 K
b00 P
b01 Q
b01 R
b10 S
b11 T
b00 U
b11 V
b10 W
b10 X
b11 Y
b00 Z
b11 [
b10 ]
0^
b11 _
b00 c
0d
b11 e
0i
0j
1m
0n
1o
1p
0r
1s
0t
b01 v
b10 w
15!
b000 9!
#540000
05!
#550000
03
04
b10 8
1;
1<
b000 =
b10 @
0A
0B
1C
0D
1E
0F
1G
b00000110 J
b00101010 K
b01 P
b10 Q
b00 R
b01 S
b10 T
b11 U
b00 V
b11 W
b11 X
b00 Y
b11 Z
b10 [
b11 ]
1^
b00 _
b11 c
1d
b10 e
1i
1j
0m
1n
0o
0p
1r
0s
1t
b10 v
b01 w
15!
1:!
#560000
05!
#570000
13
b00 8
09
0;
0<
0>
b11 @
1B
0C
1D
0E
1F
0G
1H
b00000111 J
b01010101 K
b00 P
b01 Q
b01 R
b10 S
b11 T
b00 U
b11 V
b10 W
b10 X
b11 Y
b00 Z
b11 [
b10 ]
0^
b11 _
b00 c
0d
b11 e
0i
0j
1m
0n
1o
1p
0r
1s
0t
b01 v
0x
15!
#580000
05!
#590000
14
b10101010 6
17
0:
1>
0B
1C
0D
1E
0F
1G
0H
1I
b00001000 J
b10101010 K
15!
b001 9!
0:!
#600000
05!
#610000
b11 8
19
b001 =
b10101010 L
b10 P
b00 S
b00 X
b10 Z
b00 ]
b10 c
1h
1i
1k
0l
0o
0s
1t
b00 w
1x
15!
b010 9!
#620000
05!
#630000
b10 8
1:
b010 =
b10 @
b01 P
b10 Q
b00 R
b01 S
b00 T
b11 U
b10 V
b11 W
b01 X
b10 Y
b01 Z
b01 \
b11 ]
1^
b10 _
b01 b
b11 c
1d
0h
1j
0k
1l
0m
1n
0p
1r
b00 v
15!
b011 9!
#640000
05!
#650000
07
b00 8
b011 =
b00 @
0C
1D
0E
1F
0G
1H
0I
b00000000 J
b01010100 K
b00 P
b01 Q
b01 R
b10 S
b01 T
b10 U
b01 V
b10 Z
b10 [
b11 b
b10 c
0d
b10 e
0i
0j
1m
0n
1o
1p
0r
1s
15!
b100 9!
#660000
05!
#670000
b10 8
b100 =
b10 @
0D
1E
0F
1G
0H
1I
b00000001 J
b10101000 K
b01 P
b10 Q
b00 R
b01 S
b10 V
b10 W
b10 X
b10 \
b10 b
b11 c
1d
b11 e
b10 f
0g
1i
1j
0m
1n
0o
0p
1r
0s
15!
b101 9!
#680000
05!
#690000
04
b00000000 6
b00 8
09
0:
b000 =
0>
b0000000000000000 ?
b00 @
0E
0G
0I
b00000000 J
b00000000 K
b00000000 L
b00 P
b01 Q
b01 R
b10 S
b00 T
b11 U
b11 V
b11 W
b00 X
b11 Y
b11 [
b00 \
b11 _
b11 f
1g
0i
0j
1m
0n
1o
1p
0r
1s
0x
15!
06!
b000 9!
1:!
#700000
05!
16!
#710000
b00 +
b00 ,
b00 .
b00 0
b11 2
14
b0000000000000011 5
1>
b0000000000000011 ?
15!
b0000000000000011 8!
b001 9!
0:!
#720000
05!
#730000
19
b001 =
1x
15!
b010 9!
#740000
05!
#750000
1:
b010 =
b10 V
15!
b011 9!
#760000
05!
#770000
b011 =
b00000001 J
15!
b100 9!
#780000
05!
#790000
b100 =
b00000010 J
15!
b101 9!
#800000
05!
#810000
b101 =
b00000011 J
15!
b110 9!
#820000
05!
#830000
b110 =
b00000100 J
15!
b111 9!
#840000
05!
#850000
b111 =
1A
b00000101 J
15!
b000 9!
#860000
05!
