03_verif/Testcase1/tb_Testcase1.vcd
$version Generated by VerilatedVcd $end
$timescale 1ps $end
 $scope module TOP $end
  $var wire 1 (! PISO.i_clk $end
  $var wire 1 )! PISO.i_rst_n $end
  $var wire 1 *! PISO.i_start $end
  $var wire 16 +! PISO.i_data [15:0] $end
  $var wire 2 ,! PISO.o_data [1:0] $end
  $var wire 1 -! PISO.o_valid $end
  $var wire 1 .! o_done $end
  $var wire 1 /! Output_interface_block.i_clk $end
  $var wire 1 0! Output_interface_block.i_rst_n $end
  $var wire 1 1! Output_interface_block.i_start $end
  $var wire 1 2! i_valid $end
  $var wire 1 3! Output_interface_block.i_data [0:0] $end
  $var wire 8 4! Output_interface_block.o_data [7:0] $end
  $var wire 1 5! Output_interface_block.o_valid $end
  $scope module Output_interface_block $end
   $var wire 32 ;! SIZE_IN [31:0] $end
   $var wire 32 <! SIZE_OUT [31:0] $end
   $var wire 1 /! i_clk $end
   $var wire 1 0! i_rst_n $end
   $var wire 1 1! i_start $end
   $var wire 1 2! i_valid $end
   $var wire 1 3! i_data [0:0] $end
   $var wire 8 4! o_data [7:0] $end
   $var wire 1 5! o_valid $end
   $var wire 1 w shift_reg[0] [0:0] $end
   $var wire 1 x shift_reg[1] [0:0] $end
   $var wire 1 y shift_reg[2] [0:0] $end
   $var wire 1 z shift_reg[3] [0:0] $end
   $var wire 1 { shift_reg[4] [0:0] $end
   $var wire 1 | shift_reg[5] [0:0] $end
   $var wire 1 } shift_reg[6] [0:0] $end
   $var wire 1 ~ shift_reg[7] [0:0] $end
   $scope module unnamedblk1 $end
    $var wire 32 !! i [31:0] $end
   $upscope $end
   $scope module unnamedblk2 $end
    $var wire 32 "! i [31:0] $end
   $upscope $end
  $upscope $end
  $scope module PISO $end
   $var wire 32 =! SIZE_DATA_IN [31:0] $end
   $var wire 32 >! SIZE_DATA_OUT [31:0] $end
   $var wire 1 (! i_clk $end
   $var wire 1 )! i_rst_n $end
   $var wire 1 *! i_start $end
   $var wire 16 +! i_data [15:0] $end
   $var wire 2 ,! o_data [1:0] $end
   $var wire 1 -! o_valid $end
   $var wire 1 .! o_done $end
   $var wire 32 <! DEPTH [31:0] $end
   $var wire 32 ?! SIZE_DEPTH [31:0] $end
   $var wire 2 # shift_reg[0] [1:0] $end
   $var wire 2 $ shift_reg[1] [1:0] $end
   $var wire 2 % shift_reg[2] [1:0] $end
   $var wire 2 & shift_reg[3] [1:0] $end
   $var wire 2 ' shift_reg[4] [1:0] $end
   $var wire 2 ( shift_reg[5] [1:0] $end
   $var wire 2 ) shift_reg[6] [1:0] $end
   $var wire 2 * shift_reg[7] [1:0] $end
   $var wire 3 #! count [2:0] $end
   $var wire 3 + ncount [2:0] $end
   $var wire 1 , w_update_count $end
   $var wire 1 $! w_count $end
   $var wire 1 - w_count_next $end
   $var wire 16 . w_idata [15:0] $end
   $var wire 16 %! w_idata_next [15:0] $end
   $var wire 1 6! w_update_idata $end
   $var wire 2 &! w_output [1:0] $end
   $var wire 1 - w_ovalid $end
   $var wire 1 '! w_done $end
  $upscope $end
  $scope module tb_Testcase1 $end
   $var wire 1 7! i_clk $end
   $var wire 1 8! i_rst_n $end
   $var wire 1 9! i_start $end
   $var wire 16 :! i_data [15:0] $end
   $var wire 8 \ o_data [7:0] $end
   $var wire 1 ] o_valid $end
   $scope module dut $end
    $var wire 32 =! SIZE_DATA_IN [31:0] $end
    $var wire 32 <! SIZE_DATA_OUT [31:0] $end
    $var wire 32 >! SIZE_PISO [31:0] $end
    $var wire 32 ;! SIZE_SIPO [31:0] $end
    $var wire 1 7! i_clk $end
    $var wire 1 8! i_rst_n $end
    $var wire 1 9! i_start $end
    $var wire 16 :! i_data [15:0] $end
    $var wire 8 \ o_data [7:0] $end
    $var wire 1 ] o_done $end
    $var wire 2 7 w_data_PISO [1:0] $end
    $var wire 1 ^ w_valid_PISO $end
    $var wire 1 _ w_valid_VD $end
    $var wire 1 ` w_data_SIPO [0:0] $end
    $var wire 1 ] w_done_SIPO $end
    $scope module IIB $end
     $var wire 32 =! SIZE_IN [31:0] $end
     $var wire 32 >! SIZE_OUT [31:0] $end
     $var wire 1 7! i_clk $end
     $var wire 1 8! i_rst_n $end
     $var wire 1 9! i_start $end
     $var wire 16 :! i_data [15:0] $end
     $var wire 2 7 o_data [1:0] $end
     $var wire 1 ^ o_valid $end
     $var wire 1 a o_stop $end
     $var wire 4 b state [3:0] $end
     $scope module nsb $end
      $var wire 1 7! i_clk $end
      $var wire 1 8! i_rst_n $end
      $var wire 1 9! i_start $end
      $var wire 4 b o_state [3:0] $end
      $var wire 1 ^ o_valid $end
      $var wire 1 a o_stop $end
      $var wire 4 b state [3:0] $end
      $var wire 4 c nstate [3:0] $end
     $upscope $end
     $scope module ob $end
      $var wire 32 =! SIZE_IN [31:0] $end
      $var wire 32 >! SIZE_OUT [31:0] $end
      $var wire 4 b i_state [3:0] $end
      $var wire 16 :! i_data [15:0] $end
      $var wire 2 7 o_data [1:0] $end
      $var wire 2 / shift_reg[0] [1:0] $end
      $var wire 2 0 shift_reg[1] [1:0] $end
      $var wire 2 1 shift_reg[2] [1:0] $end
      $var wire 2 2 shift_reg[3] [1:0] $end
      $var wire 2 3 shift_reg[4] [1:0] $end
      $var wire 2 4 shift_reg[5] [1:0] $end
      $var wire 2 5 shift_reg[6] [1:0] $end
      $var wire 2 6 shift_reg[7] [1:0] $end
     $upscope $end
    $upscope $end
    $scope module SIPO_unit $end
     $var wire 32 ;! SIZE_DATA_IN [31:0] $end
     $var wire 32 <! SIZE_DATA_OUT [31:0] $end
     $var wire 1 7! i_clk $end
     $var wire 1 8! i_rst_n $end
     $var wire 1 _ i_start $end
     $var wire 1 ` i_data [0:0] $end
     $var wire 8 \ o_data [7:0] $end
     $var wire 1 ] o_done $end
     $var wire 32 <! SIZE_DEPTH [31:0] $end
     $var wire 1 d shift_reg[0] [0:0] $end
     $var wire 1 e shift_reg[1] [0:0] $end
     $var wire 1 f shift_reg[2] [0:0] $end
     $var wire 1 g shift_reg[3] [0:0] $end
     $var wire 1 h shift_reg[4] [0:0] $end
     $var wire 1 i shift_reg[5] [0:0] $end
     $var wire 1 j shift_reg[6] [0:0] $end
     $var wire 1 k shift_reg[7] [0:0] $end
     $var wire 8 l count [7:0] $end
     $var wire 8 m w_odata [7:0] $end
     $var wire 8 n w_odata_next [7:0] $end
     $scope module unnamedblk1 $end
      $var wire 32 o i [31:0] $end
     $upscope $end
     $scope module unnamedblk2 $end
      $var wire 32 p i [31:0] $end
     $upscope $end
     $scope module unnamedblk3 $end
      $var wire 32 q i [31:0] $end
     $upscope $end
    $upscope $end
    $scope module VD_unit $end
     $var wire 1 7! i_clk $end
     $var wire 1 8! i_rst_n $end
     $var wire 1 ^ i_valid $end
     $var wire 2 7 i_data [1:0] $end
     $var wire 1 ` o_decision $end
     $var wire 1 _ o_valid $end
     $var wire 2 8 w_oBM_0 [1:0] $end
     $var wire 2 9 w_oBM_1 [1:0] $end
     $var wire 2 : w_oBM_2 [1:0] $end
     $var wire 2 ; w_oBM_3 [1:0] $end
     $var wire 2 r w_iPM_0 [1:0] $end
     $var wire 2 s w_iPM_1 [1:0] $end
     $var wire 2 t w_iPM_2 [1:0] $end
     $var wire 2 u w_iPM_3 [1:0] $end
     $var wire 2 < w_oPM_0 [1:0] $end
     $var wire 2 = w_oPM_1 [1:0] $end
     $var wire 2 > w_oPM_2 [1:0] $end
     $var wire 2 ? w_oPM_3 [1:0] $end
     $scope module ACSU $end
      $var wire 2 8 i_BM_0 [1:0] $end
      $var wire 2 9 i_BM_1 [1:0] $end
      $var wire 2 : i_BM_2 [1:0] $end
      $var wire 2 ; i_BM_3 [1:0] $end
      $var wire 2 r i_PM_0 [1:0] $end
      $var wire 2 s i_PM_1 [1:0] $end
      $var wire 2 t i_PM_2 [1:0] $end
      $var wire 2 u i_PM_3 [1:0] $end
      $var wire 2 < o_PM_0 [1:0] $end
      $var wire 2 = o_PM_1 [1:0] $end
      $var wire 2 > o_PM_2 [1:0] $end
      $var wire 2 ? o_PM_3 [1:0] $end
      $var wire 2 < w_PM_0 [1:0] $end
      $var wire 2 = w_PM_1 [1:0] $end
      $var wire 2 > w_PM_2 [1:0] $end
      $var wire 2 ? w_PM_3 [1:0] $end
      $scope module ACS_0 $end
       $var wire 2 8 i_BM_0 [1:0] $end
       $var wire 2 ; i_BM_1 [1:0] $end
       $var wire 2 r i_PM_0 [1:0] $end
       $var wire 2 s i_PM_1 [1:0] $end
       $var wire 2 < o_PM [1:0] $end
       $var wire 2 @ w_metric_path_0 [1:0] $end
       $var wire 2 A w_metric_path_1 [1:0] $end
       $var wire 1 B w_compare_less $end
       $scope module ADD0 $end
        $var wire 2 8 i_BM [1:0] $end
        $var wire 2 r i_PM [1:0] $end
        $var wire 2 @ o_PM [1:0] $end
       $upscope $end
       $scope module ADD1 $end
        $var wire 2 ; i_BM [1:0] $end
        $var wire 2 s i_PM [1:0] $end
        $var wire 2 A o_PM [1:0] $end
       $upscope $end
       $scope module CP $end
        $var wire 2 @ i_metric_path_0 [1:0] $end
        $var wire 2 A i_metric_path_1 [1:0] $end
        $var wire 1 B o_compare_less $end
       $upscope $end
      $upscope $end
      $scope module ACS_1 $end
       $var wire 2 : i_BM_0 [1:0] $end
       $var wire 2 9 i_BM_1 [1:0] $end
       $var wire 2 t i_PM_0 [1:0] $end
       $var wire 2 u i_PM_1 [1:0] $end
       $var wire 2 = o_PM [1:0] $end
       $var wire 2 C w_metric_path_0 [1:0] $end
       $var wire 2 D w_metric_path_1 [1:0] $end
       $var wire 1 E w_compare_less $end
       $scope module ADD0 $end
        $var wire 2 : i_BM [1:0] $end
        $var wire 2 t i_PM [1:0] $end
        $var wire 2 C o_PM [1:0] $end
       $upscope $end
       $scope module ADD1 $end
        $var wire 2 9 i_BM [1:0] $end
        $var wire 2 u i_PM [1:0] $end
        $var wire 2 D o_PM [1:0] $end
       $upscope $end
       $scope module CP $end
        $var wire 2 C i_metric_path_0 [1:0] $end
        $var wire 2 D i_metric_path_1 [1:0] $end
        $var wire 1 E o_compare_less $end
       $upscope $end
      $upscope $end
      $scope module ACS_2 $end
       $var wire 2 ; i_BM_0 [1:0] $end
       $var wire 2 8 i_BM_1 [1:0] $end
       $var wire 2 r i_PM_0 [1:0] $end
       $var wire 2 s i_PM_1 [1:0] $end
       $var wire 2 > o_PM [1:0] $end
       $var wire 2 F w_metric_path_0 [1:0] $end
       $var wire 2 G w_metric_path_1 [1:0] $end
       $var wire 1 H w_compare_less $end
       $scope module ADD0 $end
        $var wire 2 ; i_BM [1:0] $end
        $var wire 2 r i_PM [1:0] $end
        $var wire 2 F o_PM [1:0] $end
       $upscope $end
       $scope module ADD1 $end
        $var wire 2 8 i_BM [1:0] $end
        $var wire 2 s i_PM [1:0] $end
        $var wire 2 G o_PM [1:0] $end
       $upscope $end
       $scope module CP $end
        $var wire 2 F i_metric_path_0 [1:0] $end
        $var wire 2 G i_metric_path_1 [1:0] $end
        $var wire 1 H o_compare_less $end
       $upscope $end
      $upscope $end
      $scope module ACS_3 $end
       $var wire 2 9 i_BM_0 [1:0] $end
       $var wire 2 : i_BM_1 [1:0] $end
       $var wire 2 t i_PM_0 [1:0] $end
       $var wire 2 u i_PM_1 [1:0] $end
       $var wire 2 ? o_PM [1:0] $end
       $var wire 2 I w_metric_path_0 [1:0] $end
       $var wire 2 J w_metric_path_1 [1:0] $end
       $var wire 1 K w_compare_less $end
       $scope module ADD0 $end
        $var wire 2 9 i_BM [1:0] $end
        $var wire 2 t i_PM [1:0] $end
        $var wire 2 I o_PM [1:0] $end
       $upscope $end
       $scope module ADD1 $end
        $var wire 2 : i_BM [1:0] $end
        $var wire 2 u i_PM [1:0] $end
        $var wire 2 J o_PM [1:0] $end
       $upscope $end
       $scope module CP $end
        $var wire 2 I i_metric_path_0 [1:0] $end
        $var wire 2 J i_metric_path_1 [1:0] $end
        $var wire 1 K o_compare_less $end
       $upscope $end
      $upscope $end
     $upscope $end
     $scope module BMU $end
      $var wire 32 >! SIZE_DATA [31:0] $end
      $var wire 2 7 i_data [1:0] $end
      $var wire 2 8 o_BM_0 [1:0] $end
      $var wire 2 9 o_BM_1 [1:0] $end
      $var wire 2 : o_BM_2 [1:0] $end
      $var wire 2 ; o_BM_3 [1:0] $end
      $var wire 2 8 w_BM_0 [1:0] $end
      $var wire 2 9 w_BM_1 [1:0] $end
      $var wire 2 : w_BM_2 [1:0] $end
      $var wire 2 ; w_BM_3 [1:0] $end
      $scope module HD0 $end
       $var wire 2 7 i_data [1:0] $end
       $var wire 2 @! i_exp_code [1:0] $end
       $var wire 2 8 o_hamming_distance [1:0] $end
       $var wire 1 L w_data_0 $end
       $var wire 1 M w_data_1 $end
       $scope module FA $end
        $var wire 1 L i_a $end
        $var wire 1 M i_b $end
        $var wire 1 A! i_c $end
        $var wire 1 N o_s $end
        $var wire 1 O o_c $end
       $upscope $end
      $upscope $end
      $scope module HD1 $end
       $var wire 2 7 i_data [1:0] $end
       $var wire 2 B! i_exp_code [1:0] $end
       $var wire 2 9 o_hamming_distance [1:0] $end
       $var wire 1 P w_data_0 $end
       $var wire 1 M w_data_1 $end
       $scope module FA $end
        $var wire 1 P i_a $end
        $var wire 1 M i_b $end
        $var wire 1 A! i_c $end
        $var wire 1 Q o_s $end
        $var wire 1 R o_c $end
       $upscope $end
      $upscope $end
      $scope module HD2 $end
       $var wire 2 7 i_data [1:0] $end
       $var wire 2 C! i_exp_code [1:0] $end
       $var wire 2 : o_hamming_distance [1:0] $end
       $var wire 1 L w_data_0 $end
       $var wire 1 S w_data_1 $end
       $scope module FA $end
        $var wire 1 L i_a $end
        $var wire 1 S i_b $end
        $var wire 1 A! i_c $end
        $var wire 1 T o_s $end
        $var wire 1 U o_c $end
       $upscope $end
      $upscope $end
      $scope module HD3 $end
       $var wire 2 7 i_data [1:0] $end
       $var wire 2 D! i_exp_code [1:0] $end
       $var wire 2 ; o_hamming_distance [1:0] $end
       $var wire 1 P w_data_0 $end
       $var wire 1 S w_data_1 $end
       $scope module FA $end
        $var wire 1 P i_a $end
        $var wire 1 S i_b $end
        $var wire 1 A! i_c $end
        $var wire 1 V o_s $end
        $var wire 1 W o_c $end
       $upscope $end
      $upscope $end
     $upscope $end
     $scope module PMU $end
      $var wire 32 >! SIZE_DATA [31:0] $end
      $var wire 1 7! i_clk $end
      $var wire 1 8! i_rst_n $end
      $var wire 1 ^ i_valid $end
      $var wire 2 < i_PM_0 [1:0] $end
      $var wire 2 = i_PM_1 [1:0] $end
      $var wire 2 > i_PM_2 [1:0] $end
      $var wire 2 ? i_PM_3 [1:0] $end
      $var wire 2 r o_PM_0 [1:0] $end
      $var wire 2 s o_PM_1 [1:0] $end
      $var wire 2 t o_PM_2 [1:0] $end
      $var wire 2 u o_PM_3 [1:0] $end
     $upscope $end
     $scope module SPMU $end
      $var wire 1 7! i_clk $end
      $var wire 1 8! i_rst_n $end
      $var wire 1 ^ i_valid $end
      $var wire 2 < i_PM_0 [1:0] $end
      $var wire 2 = i_PM_1 [1:0] $end
      $var wire 2 > i_PM_2 [1:0] $end
      $var wire 2 ? i_PM_3 [1:0] $end
      $var wire 1 ` o_decision $end
      $var wire 1 _ o_valid $end
      $var wire 1 X w_compare_0 $end
      $var wire 1 Y w_compare_1 $end
      $scope module CP0 $end
       $var wire 2 < i_metric_path_0 [1:0] $end
       $var wire 2 > i_metric_path_1 [1:0] $end
       $var wire 1 X o_compare_less $end
      $upscope $end
      $scope module CP1 $end
       $var wire 2 = i_metric_path_0 [1:0] $end
       $var wire 2 ? i_metric_path_1 [1:0] $end
       $var wire 1 Y o_compare_less $end
      $upscope $end
      $scope module u_state_machine $end
       $var wire 1 7! i_clk $end
       $var wire 1 8! i_rst_n $end
       $var wire 1 ^ i_valid $end
       $var wire 1 X i_compare_0 $end
       $var wire 1 Y i_compare_1 $end
       $var wire 1 ` o_decision $end
       $var wire 1 _ o_valid $end
       $var wire 2 v state [1:0] $end
       $var wire 2 Z nstate [1:0] $end
       $var wire 1 [ w_valid $end
       $scope module NSL $end
        $var wire 1 ^ i_valid $end
        $var wire 1 X i_compare_0 $end
        $var wire 1 Y i_compare_1 $end
        $var wire 2 v i_pre_state [1:0] $end
        $var wire 2 Z o_next_state [1:0] $end
        $var wire 1 [ o_valid $end
        $var wire 2 @! S0 [1:0] $end
        $var wire 2 B! S1 [1:0] $end
        $var wire 2 C! S2 [1:0] $end
        $var wire 2 D! S3 [1:0] $end
       $upscope $end
       $scope module OL $end
        $var wire 2 v i_curr_state [1:0] $end
        $var wire 1 ` o_decision_bit $end
        $var wire 2 @! S0 [1:0] $end
        $var wire 2 B! S1 [1:0] $end
        $var wire 2 C! S2 [1:0] $end
        $var wire 2 D! S3 [1:0] $end
       $upscope $end
       $scope module SM $end
        $var wire 1 7! i_clk $end
        $var wire 1 8! i_rst_n $end
        $var wire 1 [ i_valid $end
        $var wire 2 Z i_next_state [1:0] $end
        $var wire 2 v o_curr_state [1:0] $end
        $var wire 1 _ o_valid $end
        $var wire 2 @! S0 [1:0] $end
       $upscope $end
      $upscope $end
     $upscope $end
    $upscope $end
   $upscope $end
  $upscope $end
 $upscope $end
$enddefinitions $end


#0
b00 #
b00 $
b00 %
b00 &
b00 '
b00 (
b00 )
b00 *
b000 +
0,
0-
b0000000000000000 .
b00 /
b00 0
b00 1
b00 2
b00 3
b00 4
b00 5
b00 6
b00 7
b00 8
b01 9
b01 :
b10 ;
b00 <
b01 =
b00 >
b01 ?
b00 @
b10 A
1B
b01 C
b01 D
1E
b10 F
b00 G
0H
b01 I
b01 J
1K
0L
0M
0N
0O
1P
1Q
0R
1S
1T
0U
0V
1W
1X
1Y
b00 Z
0[
b00000000 \
0]
0^
0_
0`
0a
b0000 b
b0001 c
0d
0e
0f
0g
0h
0i
0j
0k
b00000000 l
b00000000 m
b00000000 n
b00000000000000000000000000000000 o
b00000000000000000000000000000000 p
b00000000000000000000000000000000 q
b00 r
b00 s
b00 t
b00 u
b00 v
0w
0x
0y
0z
0{
0|
0}
0~
b00000000000000000000000000000000 !!
b00000000000000000000000000000000 "!
b000 #!
0$!
b0000000000000000 %!
b00 &!
0'!
0(!
0)!
0*!
b0000000000000000 +!
b00 ,!
0-!
0.!
0/!
00!
01!
02!
03!
b00000000 4!
05!
06!
07!
08!
09!
b0000000000000000 :!
b00000000000000000000000000000001 ;!
b00000000000000000000000000001000 <!
b00000000000000000000000000010000 =!
b00000000000000000000000000000010 >!
b00000000000000000000000000000011 ?!
b00 @!
0A!
b01 B!
b10 C!
b11 D!
#5000
b11 =
b10 >
b11 ?
b11 A
b11 C
b11 D
b11 G
1H
b11 I
b11 J
b00000000000000000000000000001000 o
b11 s
b11 t
b11 u
17!
#10000
07!
19!
#15000
17!
#20000
07!
18!
#25000
b11 /
b01 0
b01 1
b01 3
b01 4
b10 6
b11 7
b10 8
b00 ;
b10 <
b00 >
b10 @
b00 F
1L
1M
1O
0P
0S
0W
0X
b10 Z
1[
1^
b0001 b
b0010 c
b00000000000000000000000000001000 q
17!
b1101010001010010 :!
#30000
07!
#35000
b01 7
b01 8
b00 9
b10 :
b01 ;
b11 <
b10 =
b11 >
b00 ?
b11 @
b10 C
b11 F
b00 I
0M
1N
0O
0Q
1S
0T
1U
1V
1X
0Y
b11 Z
1_
1`
b0010 b
b0011 c
b10 r
b00 t
b10 v
17!
#40000
07!
#45000
b00 =
b10 ?
b11 C
b00 D
0E
b11 I
b10 J
0K
1Y
b01 Z
b0011 b
b0100 c
1d
b00000001 l
b00000001 m
b00000000000000000000000000001000 p
b11 r
b10 s
b11 t
b00 u
b11 v
17!
#50000
07!
#55000
b00 7
b00 8
b01 9
b01 :
b10 ;
b10 <
b11 =
b00 >
b11 ?
b10 A
0B
b11 D
1E
b00 G
0H
b11 J
1K
0L
0N
1P
1Q
1T
0U
0V
1W
0X
b10 Z
0`
b0100 b
b0101 c
1e
b00000010 l
b00000011 m
b00 s
b10 u
b01 v
17!
#60000
07!
#65000
b01 7
b01 8
b00 9
b10 :
b01 ;
b11 <
b10 =
b11 >
b00 ?
b11 A
1B
b10 C
b11 G
1H
b00 I
1L
1N
0P
0Q
0T
1U
1V
0W
1X
0Y
b11 Z
1`
b0101 b
b0110 c
0d
1f
b00000011 l
b00000110 m
b10 r
b11 s
b00 t
b11 u
b10 v
17!
#70000
07!
#75000
b00 =
b10 ?
b11 C
b00 D
0E
b11 I
b10 J
0K
1Y
b01 Z
b0110 b
b0111 c
1d
0e
1g
b00000100 l
b00001101 m
b11 r
b10 s
b11 t
b00 u
b11 v
17!
#80000
07!
#85000
b00 7
b00 8
b01 9
b01 :
b10 ;
b10 <
b11 =
b00 >
b11 ?
b10 A
0B
b11 D
1E
b00 G
0H
b11 J
1K
0L
0N
1P
1Q
1T
0U
0V
1W
0X
b10 Z
0`
b0111 b
b1000 c
1e
0f
1h
b00000101 l
b00011011 m
b00 s
b10 u
b01 v
17!
#90000
07!
#95000
b10 7
b01 8
b10 9
b00 :
b01 ;
b11 <
b00 =
b11 >
b10 ?
b11 A
1B
b00 C
b11 G
1H
b10 I
1M
1N
0Q
1R
0S
0T
1V
0W
1X
b01 Z
1`
b1000 b
b1001 c
0d
1f
0g
1i
b00000110 l
b00110110 m
b10 r
b11 s
b00 t
b11 u
b10 v
17!
#100000
07!
#105000
b01 <
b11 =
b01 >
b01 A
0B
b11 C
b01 G
0H
b11 I
b10 J
0K
0Y
0[
0^
0`
1a
b0000 b
b0001 c
1d
0e
1g
0h
1j
b00000111 l
b01101101 m
b11 r
b00 s
b11 t
b10 u
b01 v
17!
#110000
07!
#115000
b11 7
b10 8
b01 9
b01 :
b00 ;
b00 <
b10 >
b11 ?
b00 A
b10 G
b11 J
1K
1L
0N
1O
0P
1Q
0R
1T
0V
1Y
b00 Z
1[
1^
0_
0a
b0001 b
b0010 c
0d
1e
0f
1h
0i
1k
b00001000 l
b11011010 m
17!
#120000
07!
#125000
b01 7
b01 8
b00 9
b10 :
b01 ;
b01 <
b01 >
b10 ?
b01 @
b11 A
1B
b01 F
b11 G
1H
b10 I
0M
1N
0O
0Q
1S
0T
1U
1V
0Y
1_
b0010 b
b0011 c
b00 r
b11 s
b10 t
b11 u
b00 v
17!
#130000
07!
#135000
b10 <
b10 =
b10 >
b01 ?
b10 @
b10 D
0E
b10 F
b01 I
b10110100 \
1]
b0011 b
b0100 c
0e
1f
0g
1i
0j
b00001001 l
b10110100 m
b01 r
b01 t
b10 u
17!
#140000
07!
#145000
b01 <
b11 =
b01 >
b11 ?
b01 @
b11 D
1E
b01 F
b11 I
1Y
0[
b00000000 \
0]
0^
0_
b0000 b
b0001 c
0f
0h
0i
0k
b00000000 l
b00000000 m
b00 r
b11 t
b11 u
17!
08!
#150000
07!
#155000
b11 7
b10 8
b01 9
b01 :
b00 ;
b10 <
b00 >
b10 @
b00 F
1M
0N
1O
1Q
0S
1T
0U
0V
0X
b10 Z
1[
1^
b0001 b
b0010 c
17!
18!
#160000
07!
#165000
b10 0
b00 1
b10 2
b00 3
b10 4
b10 7
b01 8
b10 9
b00 :
b01 ;
b11 <
b00 =
b11 >
b10 ?
b11 @
b00 C
b11 F
b10 I
0L
1N
0O
1P
0Q
1R
0T
1V
1X
b01 Z
1_
1`
b0010 b
b0011 c
b10 r
b00 t
b10 v
17!
b1110001000100010 :!
#170000
07!
#175000
b00 7
b00 8
b01 9
b01 :
b10 ;
b10 <
b11 =
b00 >
b11 ?
b10 A
0B
b11 C
b00 G
0H
b11 I
0M
0N
1Q
0R
1S
1T
0V
1W
0X
b10 Z
0`
b0011 b
b0100 c
1d
b00000001 l
b00000001 m
b11 r
b00 s
b11 t
b10 u
b01 v
17!
#180000
07!
#185000
b10 7
b01 8
b10 9
b00 :
b01 ;
b11 <
b00 =
b11 >
b10 ?
b11 A
1B
b00 C
b11 G
1H
b10 I
1M
1N
0Q
1R
0S
0T
1V
0W
1X
b01 Z
1`
b0100 b
b0101 c
0d
1e
b00000010 l
b00000010 m
b10 r
b11 s
b00 t
b11 u
b10 v
17!
#190000
07!
#195000
b00 7
b00 8
b01 9
b01 :
b10 ;
b10 <
b11 =
b00 >
b11 ?
b10 A
0B
b11 C
b00 G
0H
b11 I
0M
0N
1Q
0R
1S
1T
0V
1W
0X
b10 Z
0`
b0101 b
b0110 c
1d
0e
1f
b00000011 l
b00000101 m
b11 r
b00 s
b11 t
b10 u
b01 v
17!
#200000
07!
#205000
b10 7
b01 8
b10 9
b00 :
b01 ;
b11 <
b00 =
b11 >
b10 ?
b11 A
1B
b00 C
b11 G
1H
b10 I
1M
1N
0Q
1R
0S
0T
1V
0W
1X
b01 Z
1`
b0110 b
b0111 c
0d
1e
0f
1g
b00000100 l
b00001010 m
b10 r
b11 s
b00 t
b11 u
b10 v
17!
#210000
07!
#215000
b00 7
b00 8
b01 9
b01 :
b10 ;
b10 <
b11 =
b00 >
b11 ?
b10 A
0B
b11 C
b00 G
0H
b11 I
0M
0N
1Q
0R
1S
1T
0V
1W
0X
b10 Z
0`
b0111 b
b1000 c
1d
0e
1f
0g
1h
b00000101 l
b00010101 m
b11 r
b00 s
b11 t
b10 u
b01 v
17!
#220000
07!
#225000
b10 7
b01 8
b10 9
b00 :
b01 ;
b11 <
b00 =
b11 >
b10 ?
b11 A
1B
b00 C
b11 G
1H
b10 I
1M
1N
0Q
1R
0S
0T
1V
0W
1X
b01 Z
1`
b1000 b
b1001 c
0d
1e
0f
1g
0h
1i
b00000110 l
b00101010 m
b10 r
b11 s
b00 t
b11 u
b10 v
17!
#230000
07!
#235000
b01 <
b11 =
b01 >
b01 A
0B
b11 C
b01 G
0H
b11 I
b10 J
0K
0Y
0[
0^
0`
1a
b0000 b
b0001 c
1d
0e
1f
0g
1h
0i
1j
b00000111 l
b01010101 m
b11 r
b00 s
b11 t
b10 u
b01 v
17!
#240000
07!
#245000
b11 7
b10 8
b01 9
b01 :
b00 ;
b00 <
b10 >
b11 ?
b00 A
b10 G
b11 J
1K
1L
0N
1O
0P
1Q
0R
1T
0V
1Y
b00 Z
1[
1^
0_
0a
b0001 b
b0010 c
0d
1e
0f
1g
0h
1i
0j
1k
b00001000 l
b10101010 m
17!
#250000
07!
#255000
b10 7
b01 8
b10 9
b00 :
b01 ;
b01 <
b10 =
b01 >
b01 @
b11 A
1B
b10 C
b01 F
b11 G
1H
0L
1N
0O
1P
0Q
1R
0T
1V
1_
b0010 b
b0011 c
b00 r
b11 s
b10 t
b11 u
b00 v
17!
#260000
07!
#265000
b00 7
b00 8
b01 9
b01 :
b10 ;
b10 >
b10 ?
b11 F
b10 G
0H
b10 I
0M
0N
1Q
0R
1S
1T
0V
1W
b01010100 \
1]
b0011 b
b0100 c
0e
1f
0g
1h
0i
1j
0k
b00001001 l
b01010100 m
b01 r
b10 s
b01 t
17!
#270000
07!
#275000
b00 <
b11 =
b11 ?
b00 @
b11 C
b10 F
b11 G
1H
b11 I
0[
b00000000 \
0]
0^
0_
b0000 b
b0001 c
0f
0h
0j
b00000000 l
b00000000 m
b00 r
b11 s
b11 t
17!
08!
#280000
07!
#285000
b11 7
b10 8
b00 ;
b10 <
b00 >
b10 @
b00 F
1L
1M
1O
0P
0S
0W
0X
b10 Z
1[
1^
b0001 b
b0010 c
17!
18!
#290000
07!
#295000
b00 /
b00 0
b00 2
b00 4
b11 6
b00 7
b00 8
b10 ;
b00 <
b10 >
b00 @
b10 F
0L
0M
0O
1P
1S
1W
1X
b00 Z
1_
b0010 b
b0011 c
b10 t
17!
b0000000000000011 :!
#300000
07!
#305000
b0011 b
b0100 c
b00000001 l
17!
#310000
07!
#315000
b0100 b
b0101 c
b00000010 l
17!
#320000
07!
#325000
b0101 b
b0110 c
b00000011 l
17!
#330000
07!
#335000
b0110 b
b0111 c
b00000100 l
17!
#340000
07!
#345000
b0111 b
b1000 c
b00000101 l
17!
#350000
07!
#355000
b11 7
b10 8
b00 ;
b10 <
b00 >
b10 @
b00 F
1L
1M
1O
0P
0S
0W
0X
b10 Z
b1000 b
b1001 c
b00000110 l
17!
#360000
07!
#365000
b11 <
b01 =
b10 >
b01 ?
b11 @
b01 C
b10 F
b01 I
0[
0^
1`
1a
b0000 b
b0001 c
b00000111 l
b10 r
b00 t
b10 v
17!
#370000
07!
#375000
b00 7
b00 8
b10 ;
b10 <
b11 >
b10 @
b11 F
0L
0M
0O
1P
1S
1W
1X
b01 Z
1[
1^
0_
0a
b0001 b
b0010 c
1d
b00001000 l
b00000001 m
17!
#380000
07!
#385000
b10 =
b01 >
b10 ?
b11 C
b10 D
0E
b01 G
0H
b11 I
b10 J
0K
0X
b10 Z
1_
0`
b0010 b
b0011 c
b01 s
b11 t
b01 u
b01 v
17!
#390000
07!
#395000
b10 >
b10 C
b11 D
1E
b10 G
b10 I
b11 J
1K
1X
b01 Z
b00000010 \
1]
1`
b0011 b
b0100 c
0d
1e
b00001001 l
b00000010 m
b10 s
b01 t
b10 u
b10 v
17!
#400000
07!
#405000
b00 <
b11 =
b11 ?
b00 @
b11 C
b10 F
b11 G
1H
b11 I
b00 Z
0[
b00000000 \
0]
0^
0_
0`
b0000 b
b0001 c
0e
b00000000 l
b00000000 m
b00 r
b11 s
b11 t
b11 u
b00 v
17!
08!
#410000
07!
#415000
1[
1^
b0001 b
b0010 c
17!
18!
#420000
07!
#425000
b11 1
b01 2
b01 3
b11 4
b11 5
b01 6
1_
b0010 b
b0011 c
b10 t
17!
b0000110101111101 :!
#430000
07!
#435000
b11 7
b10 8
b00 ;
b10 <
b00 >
b10 @
b00 F
1L
1M
1O
0P
0S
0W
0X
b10 Z
b0011 b
b0100 c
b00000001 l
17!
#440000
07!
