03_verif/Testcase1/tb_Testcase1.vcd
$version Generated by VerilatedVcd $end
$timescale 1ps $end
 $scope module TOP $end
  $scope module tb_Testcase1 $end
   $var wire 32 } SIZE_DATA_IN [31:0] $end
   $var wire 32 ~ SIZE_DATA_OUT [31:0] $end
   $var wire 32 !! SIZE_PISO [31:0] $end
   $var wire 32 "! SIZE_SIPO [31:0] $end
   $var wire 32 #! SIZE_7SEG [31:0] $end
   $var wire 1 u i_clk $end
   $var wire 1 v i_rst_n $end
   $var wire 1 w i_start $end
   $var wire 16 x i_data [15:0] $end
   $var wire 7 y o_HEX_0 [6:0] $end
   $var wire 7 z o_HEX_1 [6:0] $end
   $var wire 1 . o_done_PISO $end
   $var wire 1 / o_done_SIPO $end
   $scope module uut $end
    $var wire 32 } SIZE_DATA_IN [31:0] $end
    $var wire 32 ~ SIZE_DATA_OUT [31:0] $end
    $var wire 32 !! SIZE_PISO [31:0] $end
    $var wire 32 "! SIZE_SIPO [31:0] $end
    $var wire 32 #! SIZE_7SEG [31:0] $end
    $var wire 1 u i_clk $end
    $var wire 1 v i_rst_n $end
    $var wire 1 w i_start $end
    $var wire 16 x i_data [15:0] $end
    $var wire 7 y o_HEX_0 [6:0] $end
    $var wire 7 z o_HEX_1 [6:0] $end
    $var wire 1 . o_done_PISO $end
    $var wire 1 / o_done_SIPO $end
    $var wire 2 0 w_data_PISO [1:0] $end
    $var wire 1 1 w_valid_PISO $end
    $var wire 8 2 o_data [7:0] $end
    $var wire 1 3 w_valid_VD $end
    $var wire 1 4 w_data_SIPO [0:0] $end
    $scope module HEX_0_unit $end
     $var wire 32 $! SIZE_DATA [31:0] $end
     $var wire 32 #! SIZE_7SEG [31:0] $end
     $var wire 1 v i_en_hex $end
     $var wire 4 5 i_data [3:0] $end
     $var wire 7 y o_HEX [6:0] $end
     $var wire 7 6 seg [6:0] $end
    $upscope $end
    $scope module HEX_1_unit $end
     $var wire 32 $! SIZE_DATA [31:0] $end
     $var wire 32 #! SIZE_7SEG [31:0] $end
     $var wire 1 v i_en_hex $end
     $var wire 4 7 i_data [3:0] $end
     $var wire 7 z o_HEX [6:0] $end
     $var wire 7 8 seg [6:0] $end
    $upscope $end
    $scope module PISO_unit $end
     $var wire 32 } SIZE_DATA_IN [31:0] $end
     $var wire 32 !! SIZE_DATA_OUT [31:0] $end
     $var wire 1 u i_clk $end
     $var wire 1 v i_rst_n $end
     $var wire 1 w i_start $end
     $var wire 16 x i_data [15:0] $end
     $var wire 2 0 o_data [1:0] $end
     $var wire 1 1 o_valid $end
     $var wire 1 . o_done $end
     $var wire 32 ~ DEPTH [31:0] $end
     $var wire 32 %! SIZE_DEPTH [31:0] $end
     $var wire 2 # shift_reg[0] [1:0] $end
     $var wire 2 $ shift_reg[1] [1:0] $end
     $var wire 2 % shift_reg[2] [1:0] $end
     $var wire 2 & shift_reg[3] [1:0] $end
     $var wire 2 ' shift_reg[4] [1:0] $end
     $var wire 2 ( shift_reg[5] [1:0] $end
     $var wire 2 ) shift_reg[6] [1:0] $end
     $var wire 2 * shift_reg[7] [1:0] $end
     $var wire 3 9 count [2:0] $end
     $var wire 3 { ncount [2:0] $end
     $var wire 1 + w_update_count $end
     $var wire 1 : w_count $end
     $var wire 1 , w_count_next $end
     $var wire 16 - w_idata [15:0] $end
     $var wire 16 ; w_idata_next [15:0] $end
     $var wire 1 | w_update_idata $end
     $var wire 2 < w_output [1:0] $end
     $var wire 1 , w_ovalid $end
     $var wire 1 = w_done $end
    $upscope $end
    $scope module SIPO_unit $end
     $var wire 32 "! SIZE_DATA_IN [31:0] $end
     $var wire 32 ~ SIZE_DATA_OUT [31:0] $end
     $var wire 1 u i_clk $end
     $var wire 1 v i_rst_n $end
     $var wire 1 3 i_start $end
     $var wire 1 4 i_data [0:0] $end
     $var wire 8 2 o_data [7:0] $end
     $var wire 1 / o_done $end
     $var wire 32 ~ SIZE_DEPTH [31:0] $end
     $var wire 1 > shift_reg[0] [0:0] $end
     $var wire 1 ? shift_reg[1] [0:0] $end
     $var wire 1 @ shift_reg[2] [0:0] $end
     $var wire 1 A shift_reg[3] [0:0] $end
     $var wire 1 B shift_reg[4] [0:0] $end
     $var wire 1 C shift_reg[5] [0:0] $end
     $var wire 1 D shift_reg[6] [0:0] $end
     $var wire 1 E shift_reg[7] [0:0] $end
     $var wire 8 F count [7:0] $end
     $var wire 8 G w_odata [7:0] $end
     $var wire 8 H w_odata_next [7:0] $end
     $scope module unnamedblk1 $end
      $var wire 32 I i [31:0] $end
     $upscope $end
     $scope module unnamedblk2 $end
      $var wire 32 J i [31:0] $end
     $upscope $end
     $scope module unnamedblk3 $end
      $var wire 32 K i [31:0] $end
     $upscope $end
    $upscope $end
    $scope module VD_unit $end
     $var wire 1 u i_clk $end
     $var wire 1 v i_rst_n $end
     $var wire 1 1 i_valid $end
     $var wire 2 0 i_data [1:0] $end
     $var wire 1 4 o_decision $end
     $var wire 1 3 o_valid $end
     $var wire 2 L w_oBM_0 [1:0] $end
     $var wire 2 M w_oBM_1 [1:0] $end
     $var wire 2 N w_oBM_2 [1:0] $end
     $var wire 2 O w_oBM_3 [1:0] $end
     $var wire 2 P w_iPM_0 [1:0] $end
     $var wire 2 Q w_iPM_1 [1:0] $end
     $var wire 2 R w_iPM_2 [1:0] $end
     $var wire 2 S w_iPM_3 [1:0] $end
     $var wire 2 T w_oPM_0 [1:0] $end
     $var wire 2 U w_oPM_1 [1:0] $end
     $var wire 2 V w_oPM_2 [1:0] $end
     $var wire 2 W w_oPM_3 [1:0] $end
     $scope module ACSU $end
      $var wire 2 L i_BM_0 [1:0] $end
      $var wire 2 M i_BM_1 [1:0] $end
      $var wire 2 N i_BM_2 [1:0] $end
      $var wire 2 O i_BM_3 [1:0] $end
      $var wire 2 P i_PM_0 [1:0] $end
      $var wire 2 Q i_PM_1 [1:0] $end
      $var wire 2 R i_PM_2 [1:0] $end
      $var wire 2 S i_PM_3 [1:0] $end
      $var wire 2 T o_PM_0 [1:0] $end
      $var wire 2 U o_PM_1 [1:0] $end
      $var wire 2 V o_PM_2 [1:0] $end
      $var wire 2 W o_PM_3 [1:0] $end
      $var wire 2 T w_PM_0 [1:0] $end
      $var wire 2 U w_PM_1 [1:0] $end
      $var wire 2 V w_PM_2 [1:0] $end
      $var wire 2 W w_PM_3 [1:0] $end
      $scope module ACS_0 $end
       $var wire 2 L i_BM_0 [1:0] $end
       $var wire 2 O i_BM_1 [1:0] $end
       $var wire 2 P i_PM_0 [1:0] $end
       $var wire 2 Q i_PM_1 [1:0] $end
       $var wire 2 T o_PM [1:0] $end
       $var wire 2 X w_metric_path_0 [1:0] $end
       $var wire 2 Y w_metric_path_1 [1:0] $end
       $var wire 1 Z w_compare_less $end
       $scope module ADD0 $end
        $var wire 2 L i_BM [1:0] $end
        $var wire 2 P i_PM [1:0] $end
        $var wire 2 X o_PM [1:0] $end
       $upscope $end
       $scope module ADD1 $end
        $var wire 2 O i_BM [1:0] $end
        $var wire 2 Q i_PM [1:0] $end
        $var wire 2 Y o_PM [1:0] $end
       $upscope $end
       $scope module CP $end
        $var wire 2 X i_metric_path_0 [1:0] $end
        $var wire 2 Y i_metric_path_1 [1:0] $end
        $var wire 1 Z o_compare_less $end
       $upscope $end
      $upscope $end
      $scope module ACS_1 $end
       $var wire 2 N i_BM_0 [1:0] $end
       $var wire 2 M i_BM_1 [1:0] $end
       $var wire 2 R i_PM_0 [1:0] $end
       $var wire 2 S i_PM_1 [1:0] $end
       $var wire 2 U o_PM [1:0] $end
       $var wire 2 [ w_metric_path_0 [1:0] $end
       $var wire 2 \ w_metric_path_1 [1:0] $end
       $var wire 1 ] w_compare_less $end
       $scope module ADD0 $end
        $var wire 2 N i_BM [1:0] $end
        $var wire 2 R i_PM [1:0] $end
        $var wire 2 [ o_PM [1:0] $end
       $upscope $end
       $scope module ADD1 $end
        $var wire 2 M i_BM [1:0] $end
        $var wire 2 S i_PM [1:0] $end
        $var wire 2 \ o_PM [1:0] $end
       $upscope $end
       $scope module CP $end
        $var wire 2 [ i_metric_path_0 [1:0] $end
        $var wire 2 \ i_metric_path_1 [1:0] $end
        $var wire 1 ] o_compare_less $end
       $upscope $end
      $upscope $end
      $scope module ACS_2 $end
       $var wire 2 O i_BM_0 [1:0] $end
       $var wire 2 L i_BM_1 [1:0] $end
       $var wire 2 P i_PM_0 [1:0] $end
       $var wire 2 Q i_PM_1 [1:0] $end
       $var wire 2 V o_PM [1:0] $end
       $var wire 2 ^ w_metric_path_0 [1:0] $end
       $var wire 2 _ w_metric_path_1 [1:0] $end
       $var wire 1 ` w_compare_less $end
       $scope module ADD0 $end
        $var wire 2 O i_BM [1:0] $end
        $var wire 2 P i_PM [1:0] $end
        $var wire 2 ^ o_PM [1:0] $end
       $upscope $end
       $scope module ADD1 $end
        $var wire 2 L i_BM [1:0] $end
        $var wire 2 Q i_PM [1:0] $end
        $var wire 2 _ o_PM [1:0] $end
       $upscope $end
       $scope module CP $end
        $var wire 2 ^ i_metric_path_0 [1:0] $end
        $var wire 2 _ i_metric_path_1 [1:0] $end
        $var wire 1 ` o_compare_less $end
       $upscope $end
      $upscope $end
      $scope module ACS_3 $end
       $var wire 2 M i_BM_0 [1:0] $end
       $var wire 2 N i_BM_1 [1:0] $end
       $var wire 2 R i_PM_0 [1:0] $end
       $var wire 2 S i_PM_1 [1:0] $end
       $var wire 2 W o_PM [1:0] $end
       $var wire 2 a w_metric_path_0 [1:0] $end
       $var wire 2 b w_metric_path_1 [1:0] $end
       $var wire 1 c w_compare_less $end
       $scope module ADD0 $end
        $var wire 2 M i_BM [1:0] $end
        $var wire 2 R i_PM [1:0] $end
        $var wire 2 a o_PM [1:0] $end
       $upscope $end
       $scope module ADD1 $end
        $var wire 2 N i_BM [1:0] $end
        $var wire 2 S i_PM [1:0] $end
        $var wire 2 b o_PM [1:0] $end
       $upscope $end
       $scope module CP $end
        $var wire 2 a i_metric_path_0 [1:0] $end
        $var wire 2 b i_metric_path_1 [1:0] $end
        $var wire 1 c o_compare_less $end
       $upscope $end
      $upscope $end
     $upscope $end
     $scope module BMU $end
      $var wire 32 !! SIZE_DATA [31:0] $end
      $var wire 2 0 i_data [1:0] $end
      $var wire 2 L o_BM_0 [1:0] $end
      $var wire 2 M o_BM_1 [1:0] $end
      $var wire 2 N o_BM_2 [1:0] $end
      $var wire 2 O o_BM_3 [1:0] $end
      $var wire 2 L w_BM_0 [1:0] $end
      $var wire 2 M w_BM_1 [1:0] $end
      $var wire 2 N w_BM_2 [1:0] $end
      $var wire 2 O w_BM_3 [1:0] $end
      $scope module HD0 $end
       $var wire 2 0 i_data [1:0] $end
       $var wire 2 &! i_exp_code [1:0] $end
       $var wire 2 L o_hamming_distance [1:0] $end
       $var wire 1 d w_data_0 $end
       $var wire 1 e w_data_1 $end
       $scope module FA $end
        $var wire 1 d i_a $end
        $var wire 1 e i_b $end
        $var wire 1 '! i_c $end
        $var wire 1 f o_s $end
        $var wire 1 g o_c $end
       $upscope $end
      $upscope $end
      $scope module HD1 $end
       $var wire 2 0 i_data [1:0] $end
       $var wire 2 (! i_exp_code [1:0] $end
       $var wire 2 M o_hamming_distance [1:0] $end
       $var wire 1 h w_data_0 $end
       $var wire 1 e w_data_1 $end
       $scope module FA $end
        $var wire 1 h i_a $end
        $var wire 1 e i_b $end
        $var wire 1 '! i_c $end
        $var wire 1 i o_s $end
        $var wire 1 j o_c $end
       $upscope $end
      $upscope $end
      $scope module HD2 $end
       $var wire 2 0 i_data [1:0] $end
       $var wire 2 )! i_exp_code [1:0] $end
       $var wire 2 N o_hamming_distance [1:0] $end
       $var wire 1 d w_data_0 $end
       $var wire 1 k w_data_1 $end
       $scope module FA $end
        $var wire 1 d i_a $end
        $var wire 1 k i_b $end
        $var wire 1 '! i_c $end
        $var wire 1 l o_s $end
        $var wire 1 m o_c $end
       $upscope $end
      $upscope $end
      $scope module HD3 $end
       $var wire 2 0 i_data [1:0] $end
       $var wire 2 *! i_exp_code [1:0] $end
       $var wire 2 O o_hamming_distance [1:0] $end
       $var wire 1 h w_data_0 $end
       $var wire 1 k w_data_1 $end
       $scope module FA $end
        $var wire 1 h i_a $end
        $var wire 1 k i_b $end
        $var wire 1 '! i_c $end
        $var wire 1 n o_s $end
        $var wire 1 o o_c $end
       $upscope $end
      $upscope $end
     $upscope $end
     $scope module PMU $end
      $var wire 32 !! SIZE_DATA [31:0] $end
      $var wire 1 u i_clk $end
      $var wire 1 v i_rst_n $end
      $var wire 1 1 i_valid $end
      $var wire 2 T i_PM_0 [1:0] $end
      $var wire 2 U i_PM_1 [1:0] $end
      $var wire 2 V i_PM_2 [1:0] $end
      $var wire 2 W i_PM_3 [1:0] $end
      $var wire 2 P o_PM_0 [1:0] $end
      $var wire 2 Q o_PM_1 [1:0] $end
      $var wire 2 R o_PM_2 [1:0] $end
      $var wire 2 S o_PM_3 [1:0] $end
     $upscope $end
     $scope module SPMU $end
      $var wire 1 u i_clk $end
      $var wire 1 v i_rst_n $end
      $var wire 1 1 i_valid $end
      $var wire 2 T i_PM_0 [1:0] $end
      $var wire 2 U i_PM_1 [1:0] $end
      $var wire 2 V i_PM_2 [1:0] $end
      $var wire 2 W i_PM_3 [1:0] $end
      $var wire 1 4 o_decision $end
      $var wire 1 3 o_valid $end
      $var wire 1 p w_compare_0 $end
      $var wire 1 q w_compare_1 $end
      $scope module CP0 $end
       $var wire 2 T i_metric_path_0 [1:0] $end
       $var wire 2 V i_metric_path_1 [1:0] $end
       $var wire 1 p o_compare_less $end
      $upscope $end
      $scope module CP1 $end
       $var wire 2 U i_metric_path_0 [1:0] $end
       $var wire 2 W i_metric_path_1 [1:0] $end
       $var wire 1 q o_compare_less $end
      $upscope $end
      $scope module u_state_machine $end
       $var wire 1 u i_clk $end
       $var wire 1 v i_rst_n $end
       $var wire 1 1 i_valid $end
       $var wire 1 p i_compare_0 $end
       $var wire 1 q i_compare_1 $end
       $var wire 1 4 o_decision $end
       $var wire 1 3 o_valid $end
       $var wire 2 r state [1:0] $end
       $var wire 2 s nstate [1:0] $end
       $var wire 1 t w_valid $end
       $scope module NSL $end
        $var wire 1 1 i_valid $end
        $var wire 1 p i_compare_0 $end
        $var wire 1 q i_compare_1 $end
        $var wire 2 r i_pre_state [1:0] $end
        $var wire 2 s o_next_state [1:0] $end
        $var wire 1 t o_valid $end
        $var wire 2 &! S0 [1:0] $end
        $var wire 2 (! S1 [1:0] $end
        $var wire 2 )! S2 [1:0] $end
        $var wire 2 *! S3 [1:0] $end
       $upscope $end
       $scope module OL $end
        $var wire 2 r i_curr_state [1:0] $end
        $var wire 1 4 o_decision_bit $end
        $var wire 2 &! S0 [1:0] $end
        $var wire 2 (! S1 [1:0] $end
        $var wire 2 )! S2 [1:0] $end
        $var wire 2 *! S3 [1:0] $end
       $upscope $end
       $scope module SM $end
        $var wire 1 u i_clk $end
        $var wire 1 v i_rst_n $end
        $var wire 1 t i_valid $end
        $var wire 2 s i_next_state [1:0] $end
        $var wire 2 r o_curr_state [1:0] $end
        $var wire 1 3 o_valid $end
        $var wire 2 &! S0 [1:0] $end
       $upscope $end
      $upscope $end
     $upscope $end
    $upscope $end
   $upscope $end
  $upscope $end
 $upscope $end
$enddefinitions $end


#0
b00 #
b00 $
b00 %
b00 &
b00 '
b00 (
b00 )
b00 *
0+
0,
b0000000000000000 -
0.
0/
b00 0
01
b00000000 2
03
04
b0000 5
b1000000 6
b0000 7
b1000000 8
b000 9
0:
b0000000000000000 ;
b00 <
0=
0>
0?
0@
0A
0B
0C
0D
0E
b00000000 F
b00000000 G
b00000000 H
b00000000000000000000000000000000 I
b00000000000000000000000000000000 J
b00000000000000000000000000000000 K
b00 L
b01 M
b01 N
b10 O
b00 P
b00 Q
b00 R
b00 S
b00 T
b01 U
b00 V
b01 W
b00 X
b10 Y
1Z
b01 [
b01 \
1]
b10 ^
b00 _
0`
b01 a
b01 b
1c
0d
0e
0f
0g
1h
1i
0j
1k
1l
0m
0n
1o
1p
1q
b00 r
b00 s
0t
0u
0v
0w
b0000000000000000 x
b1111111 y
b1111111 z
b000 {
0|
b00000000000000000000000000010000 }
b00000000000000000000000000001000 ~
b00000000000000000000000000000010 !!
b00000000000000000000000000000001 "!
b00000000000000000000000000000111 #!
b00000000000000000000000000000100 $!
b00000000000000000000000000000011 %!
b00 &!
0'!
b01 (!
b10 )!
b11 *!
#10000
b00000000000000000000000000001000 I
b11 Q
b11 R
b11 S
b11 U
b10 V
b11 W
b11 Y
b11 [
b11 \
b11 _
1`
b11 a
b11 b
1u
#20000
0u
#30000
1u
#40000
0u
#50000
1u
#60000
0u
#70000
1u
#80000
0u
#90000
1u
#100000
0u
1v
b1000000 y
b1000000 z
#110000
b00000000000000000000000000001000 K
1u
#120000
0u
#130000
1u
#140000
0u
#150000
1u
#160000
0u
#170000
1u
#180000
0u
#190000
1u
#200000
0u
b1101010001010010 x
#210000
b11 #
b01 $
b01 %
b01 '
b01 (
b10 *
1+
1,
b1101010001010010 -
1:
b1101010001010010 ;
b11 <
1u
1w
b001 {
#220000
0u
#230000
b11 0
11
b001 9
b10 L
b00 O
b10 T
b00 V
b10 X
b00 ^
1d
1e
1g
0h
0k
0o
0p
b10 s
1t
1u
b010 {
#240000
0u
#250000
b01 0
13
14
b010 9
b01 <
b01 L
b00 M
b10 N
b01 O
b10 P
b00 R
b11 T
b10 U
b11 V
b00 W
b11 X
b10 [
b11 ^
b00 a
0e
1f
0g
0i
1k
0l
1m
1n
1p
0q
b10 r
b11 s
1u
b011 {
#260000
0u
#270000
b011 9
1>
b00000001 F
b00000001 G
b00000000000000000000000000001000 J
b11 P
b10 Q
b11 R
b00 S
b00 U
b10 W
b11 [
b00 \
0]
b11 a
b10 b
0c
1q
b11 r
b01 s
1u
b100 {
#280000
0u
#290000
b00 0
04
b100 9
b00 <
1?
b00000010 F
b00000011 G
b00 L
b01 M
b01 N
b10 O
b00 Q
b10 S
b10 T
b11 U
b00 V
b11 W
b10 Y
0Z
b11 \
1]
b00 _
0`
b11 b
1c
0d
0f
1h
1i
1l
0m
0n
1o
0p
b01 r
b10 s
1u
b101 {
#300000
0u
#310000
b01 0
14
b101 9
b01 <
0>
1@
b00000011 F
b00000110 G
b01 L
b00 M
b10 N
b01 O
b10 P
b11 Q
b00 R
b11 S
b11 T
b10 U
b11 V
b00 W
b11 Y
1Z
b10 [
b11 _
1`
b00 a
1d
1f
0h
0i
0l
1m
1n
0o
1p
0q
b10 r
b11 s
1u
b110 {
#320000
0u
#330000
b110 9
1>
0?
1A
b00000100 F
b00001101 G
b11 P
b10 Q
b11 R
b00 S
b00 U
b10 W
b11 [
b00 \
0]
b11 a
b10 b
0c
1q
b11 r
b01 s
1u
b111 {
#340000
0u
#350000
b00 0
04
b111 9
b00 <
1=
1?
0@
1B
b00000101 F
b00011011 G
b00 L
b01 M
b01 N
b10 O
b00 Q
b10 S
b10 T
b11 U
b00 V
b11 W
b10 Y
0Z
b11 \
1]
b00 _
0`
b11 b
1c
0d
0f
1h
1i
1l
0m
0n
1o
0p
b01 r
b10 s
1u
b000 {
#360000
0u
#370000
0+
0,
1.
b10 0
14
b000 9
b10 <
0=
0>
1@
0A
1C
b00000110 F
b00110110 G
b01 L
b10 M
b00 N
b01 O
b10 P
b11 Q
b00 R
b11 S
b11 T
b00 U
b11 V
b10 W
b11 Y
1Z
b00 [
b11 _
1`
b10 a
1e
1f
0i
1j
0k
0l
1n
0o
1p
b10 r
b01 s
1u
1|
#380000
0u
#390000
1+
0.
b00 0
01
04
0:
b11 <
1>
0?
1A
0B
1D
b00000111 F
b01101101 G
b00 L
b01 M
b01 N
b10 O
b11 P
b00 Q
b11 R
b10 S
b10 T
b11 U
b00 V
b11 W
b10 Y
0Z
b11 [
b00 _
0`
b11 a
0e
0f
1i
0j
1k
1l
0n
1o
0p
b01 r
0t
1u
#400000
0u
#410000
1,
1/
b11011010 2
03
b1010 5
b0001000 6
b1101 7
b0100001 8
1:
0>
1?
0@
1B
0C
1E
b00001000 F
b11011010 G
1u
b0001000 y
b0100001 z
b001 {
0|
#411000
0+
0,
0w
b000 {
#420000
0u
#430000
0:
b11011010 H
1u
#440000
0u
#450000
1u
#460000
0u
#470000
1u
#480000
0u
#490000
1u
#500000
0u
#510000
1u
#511000
b00 #
b00 $
b00 %
b00 '
b00 (
b00 *
b0000000000000000 -
0/
b00000000 2
b0000 5
b1000000 6
b0000 7
b1000000 8
b0000000000000000 ;
b00 <
0?
0A
0B
0D
0E
b00000000 F
b00000000 G
b00000000 H
b00 P
b11 Q
b11 S
b00 T
b10 V
b00 X
b11 Y
1Z
b10 ^
b11 _
1`
1p
b00 r
b00 s
0v
b0000000000000000 x
b1111111 y
b1111111 z
#520000
0u
#530000
1u
#540000
0u
#550000
1u
#560000
0u
#570000
1u
#580000
0u
#590000
1u
#600000
0u
#610000
1u
#611000
1v
b1000000 y
b1000000 z
#620000
0u
#630000
1u
#640000
0u
#650000
1u
#660000
0u
#670000
1u
#680000
0u
#690000
1u
#700000
0u
#710000
1u
#711000
b1110001000100010 x
#720000
0u
#730000
b11 #
b10 $
b10 &
b10 (
b10 *
1+
1,
b1110001000100010 -
1:
b1110001000100010 ;
b11 <
1u
1w
b001 {
#740000
0u
#750000
b11 0
11
b001 9
b10 L
b00 O
b10 T
b00 V
b10 X
b00 ^
1d
1e
1g
0h
0k
0o
0p
b10 s
1t
1u
b010 {
#760000
0u
#770000
b10 0
13
14
b010 9
b10 <
b01 L
b10 M
b00 N
b01 O
b10 P
b00 R
b11 T
b00 U
b11 V
b10 W
b11 X
b00 [
b11 ^
b10 a
0d
1f
0g
1h
0i
1j
0l
1n
1p
b10 r
b01 s
1u
b011 {
#780000
0u
#790000
b00 0
04
b011 9
b00 <
1>
b00000001 F
b00000001 G
b00 L
b01 M
b01 N
b10 O
b11 P
b00 Q
b11 R
b10 S
b10 T
b11 U
b00 V
b11 W
b10 Y
0Z
b11 [
b00 _
0`
b11 a
0e
0f
1i
0j
1k
1l
0n
1o
0p
b01 r
b10 s
1u
b100 {
#800000
0u
#810000
b10 0
14
b100 9
b10 <
0>
1?
b00000010 F
b00000010 G
b01 L
b10 M
b00 N
b01 O
b10 P
b11 Q
b00 R
b11 S
b11 T
b00 U
b11 V
b10 W
b11 Y
1Z
b00 [
b11 _
1`
b10 a
1e
1f
0i
1j
0k
0l
1n
0o
1p
b10 r
b01 s
1u
b101 {
#820000
0u
#830000
b00 0
04
b101 9
b00 <
1>
0?
1@
b00000011 F
b00000101 G
b00 L
b01 M
b01 N
b10 O
b11 P
b00 Q
b11 R
b10 S
b10 T
b11 U
b00 V
b11 W
b10 Y
0Z
b11 [
b00 _
0`
b11 a
0e
0f
1i
0j
1k
1l
0n
1o
0p
b01 r
b10 s
1u
b110 {
#840000
0u
#850000
b10 0
14
b110 9
b10 <
0>
1?
0@
1A
b00000100 F
b00001010 G
b01 L
b10 M
b00 N
b01 O
b10 P
b11 Q
b00 R
b11 S
b11 T
b00 U
b11 V
b10 W
b11 Y
1Z
b00 [
b11 _
1`
b10 a
1e
1f
0i
1j
0k
0l
1n
0o
1p
b10 r
b01 s
1u
b111 {
#860000
0u
#870000
b00 0
04
b111 9
b00 <
1=
1>
0?
1@
0A
1B
b00000101 F
b00010101 G
b00 L
b01 M
b01 N
b10 O
b11 P
b00 Q
b11 R
b10 S
b10 T
b11 U
b00 V
b11 W
b10 Y
0Z
b11 [
b00 _
0`
b11 a
0e
0f
1i
0j
1k
1l
0n
1o
0p
b01 r
b10 s
1u
b000 {
#880000
0u
#890000
0+
0,
1.
b10 0
14
b000 9
b10 <
0=
0>
1?
0@
1A
0B
1C
b00000110 F
b00101010 G
b01 L
b10 M
b00 N
b01 O
b10 P
b11 Q
b00 R
b11 S
b11 T
b00 U
b11 V
b10 W
b11 Y
1Z
b00 [
b11 _
1`
b10 a
1e
1f
0i
1j
0k
0l
1n
0o
1p
b10 r
b01 s
1u
1|
#900000
0u
#910000
1+
0.
b00 0
01
04
0:
b11 <
1>
0?
1@
0A
1B
0C
1D
b00000111 F
b01010101 G
b00 L
b01 M
b01 N
b10 O
b11 P
b00 Q
b11 R
b10 S
b10 T
b11 U
b00 V
b11 W
b10 Y
0Z
b11 [
b00 _
0`
b11 a
0e
0f
1i
0j
1k
1l
0n
1o
0p
b01 r
0t
1u
#920000
0u
#930000
1,
1/
b10101010 2
03
b1010 5
b0001000 6
b1010 7
b0001000 8
1:
0>
1?
0@
1A
0B
1C
0D
1E
b00001000 F
b10101010 G
1u
b0001000 y
b0001000 z
b001 {
0|
#931000
0+
0,
0w
b000 {
#940000
0u
#950000
0:
b10101010 H
1u
#960000
0u
#970000
1u
#980000
0u
#990000
1u
#1000000
0u
#1010000
1u
#1020000
0u
#1030000
1u
#1031000
b00 #
b00 $
b00 &
b00 (
b00 *
b0000000000000000 -
0/
b00000000 2
b0000 5
b1000000 6
b0000 7
b1000000 8
b0000000000000000 ;
b00 <
0?
0A
0C
0E
b00000000 F
b00000000 G
b00000000 H
b00 P
b11 Q
b11 S
b00 T
b10 V
b00 X
b11 Y
1Z
b10 ^
b11 _
1`
1p
b00 r
b00 s
0v
b0000000000000000 x
b1111111 y
b1111111 z
#1040000
0u
#1050000
1u
#1060000
0u
#1070000
1u
#1080000
0u
#1090000
1u
#1100000
0u
#1110000
1u
#1120000
0u
#1130000
1u
#1131000
1v
b1000000 y
b1000000 z
#1140000
0u
#1150000
1u
#1160000
0u
#1170000
1u
#1180000
0u
#1190000
1u
#1200000
0u
#1210000
1u
#1220000
0u
#1230000
1u
#1231000
b0000000000000011 x
#1240000
0u
#1250000
b11 *
1+
1,
b0000000000000011 -
1:
b0000000000000011 ;
1u
1w
b001 {
#1260000
0u
#1270000
11
b001 9
1t
1u
b010 {
#1280000
0u
#1290000
13
b010 9
b10 R
1u
b011 {
#1300000
0u
#1310000
b011 9
b00000001 F
1u
b100 {
#1320000
0u
#1330000
b100 9
b00000010 F
1u
b101 {
#1340000
0u
#1350000
b101 9
b00000011 F
1u
b110 {
#1360000
0u
#1370000
b110 9
b00000100 F
1u
b111 {
#1380000
0u
#1390000
b111 9
1=
b00000101 F
1u
b000 {
#1400000
0u
#1410000
0+
0,
1.
b11 0
b000 9
b11 <
0=
b00000110 F
b10 L
b00 O
b10 T
b00 V
b10 X
b00 ^
1d
1e
1g
0h
0k
0o
0p
b10 s
1u
1|
#1420000
0u
#1430000
1+
0.
b00 0
01
14
0:
b00 <
b00000111 F
b00 L
b10 O
b10 P
b00 R
b01 U
b11 V
b01 W
b01 [
b11 ^
b01 a
0d
0e
0g
1h
1k
1o
1p
b10 r
0t
1u
#1440000
0u
#1450000
1,
1/
b00000001 2
03
b0001 5
b1111001 6
1:
1>
b00001000 F
b00000001 G
1u
b1111001 y
b001 {
0|
#1451000
0+
0,
0w
b000 {
#1460000
0u
#1470000
0:
b00000001 H
1u
#1480000
0u
#1490000
1u
#1500000
0u
#1510000
1u
#1520000
0u
#1530000
1u
#1540000
0u
#1550000
1u
#1551000
b00 *
b0000000000000000 -
0/
b00000000 2
04
b0000 5
b1000000 6
b0000000000000000 ;
0>
b00000000 F
b00000000 G
b00000000 H
b00 P
b11 R
b00 T
b11 U
b10 V
b11 W
b00 X
b11 [
b10 ^
b11 a
b00 r
b00 s
0v
b0000000000000000 x
b1111111 y
b1111111 z
#1560000
0u
#1570000
1u
#1580000
0u
#1590000
1u
#1600000
0u
#1610000
1u
#1620000
0u
#1630000
1u
#1640000
0u
#1650000
1u
#1651000
1v
b1000000 y
b1000000 z
#1660000
0u
#1670000
1u
#1680000
0u
#1690000
1u
#1700000
0u
#1710000
1u
#1720000
0u
#1730000
1u
#1740000
0u
#1750000
1u
#1751000
b0000110101111101 x
#1760000
0u
#1770000
b11 %
b01 &
b01 '
b11 (
b11 )
b01 *
1+
1,
b0000110101111101 -
1:
b0000110101111101 ;
1u
1w
b001 {
#1780000
0u
#1790000
11
b001 9
1t
1u
b010 {
#1800000
0u
#1810000
13
b010 9
b10 R
1u
b011 {
#1820000
0u
#1830000
b11 0
b011 9
b11 <
b00000001 F
b10 L
b00 O
b10 T
b00 V
b10 X
b00 ^
1d
1e
1g
0h
0k
0o
0p
b10 s
1u
b100 {
#1840000
0u
#1850000
b01 0
14
b100 9
b01 <
b00000010 F
b01 L
b00 M
b10 N
b01 O
b10 P
b00 R
b11 T
b10 U
b11 V
b00 W
b11 X
b10 [
b11 ^
b00 a
0e
1f
0g
0i
1k
0l
1m
1n
1p
0q
b10 r
b11 s
1u
b101 {
#1860000
0u
#1870000
b101 9
1>
b00000011 F
b00000001 G
b11 P
b10 Q
b11 R
b00 S
b00 U
b10 W
b11 [
b00 \
0]
b11 a
b10 b
0c
1q
b11 r
b01 s
1u
b110 {
#1880000
0u
#1890000
b11 0
04
b110 9
b11 <
1?
b00000100 F
b00000011 G
b10 L
b01 M
b01 N
b00 O
b00 Q
b10 S
b00 T
b11 U
b10 V
b11 W
b00 Y
0Z
b11 \
1]
b10 _
0`
b11 b
1c
1e
0f
1g
1i
0k
1l
0m
0n
b01 r
b00 s
1u
b111 {
#1900000
0u
#1910000
b111 9
1=
0>
1@
b00000101 F
b00000110 G
b00 P
b11 Q
b10 R
b11 S
b10 T
b00 V
b10 X
b11 Y
1Z
b00 ^
b11 _
1`
0p
b00 r
b10 s
1u
b000 {
#1920000
0u
