03_verif/Testcase1/tb_viterbi.vcd
$version Generated by VerilatedVcd $end
$timescale 1ps $end
 $scope module TOP $end
  $scope module tb_Testcase1 $end
   $var wire 1 o i_clk $end
   $var wire 1 p i_rst_n $end
   $var wire 1 q i_start $end
   $var wire 16 r i_data [15:0] $end
   $var wire 8 Q o_data [7:0] $end
   $var wire 1 R o_valid $end
   $scope module dut $end
    $var wire 32 u SIZE_DATA_IN [31:0] $end
    $var wire 32 v SIZE_DATA_OUT [31:0] $end
    $var wire 32 w SIZE_PISO [31:0] $end
    $var wire 32 x SIZE_SIPO [31:0] $end
    $var wire 1 o i_clk $end
    $var wire 1 p i_rst_n $end
    $var wire 1 q i_start $end
    $var wire 16 r i_data [15:0] $end
    $var wire 8 Q o_data [7:0] $end
    $var wire 1 R o_done $end
    $var wire 2 s w_data_PISO [1:0] $end
    $var wire 1 + w_valid_PISO $end
    $var wire 1 S w_valid_VD $end
    $var wire 1 T w_data_SIPO [0:0] $end
    $var wire 1 R w_done_SIPO $end
    $scope module PISO_unit $end
     $var wire 32 u SIZE_DATA_IN [31:0] $end
     $var wire 32 w SIZE_DATA_OUT [31:0] $end
     $var wire 1 o i_clk $end
     $var wire 1 p i_rst_n $end
     $var wire 1 q i_start $end
     $var wire 16 r i_data [15:0] $end
     $var wire 2 s o_data [1:0] $end
     $var wire 1 + o_valid $end
     $var wire 1 U o_done $end
     $var wire 32 v DEPTH [31:0] $end
     $var wire 32 y SIZE_DEPTH [31:0] $end
     $var wire 2 # shift_reg[0] [1:0] $end
     $var wire 2 $ shift_reg[1] [1:0] $end
     $var wire 2 % shift_reg[2] [1:0] $end
     $var wire 2 & shift_reg[3] [1:0] $end
     $var wire 2 ' shift_reg[4] [1:0] $end
     $var wire 2 ( shift_reg[5] [1:0] $end
     $var wire 2 ) shift_reg[6] [1:0] $end
     $var wire 2 * shift_reg[7] [1:0] $end
     $var wire 3 V count [2:0] $end
     $var wire 3 t ncount [2:0] $end
     $var wire 1 , w_update_count $end
     $var wire 1 W w_count $end
     $var wire 1 + w_count_next $end
     $var wire 2 X w_output [1:0] $end
     $var wire 1 Y w_done $end
    $upscope $end
    $scope module SIPO_unit $end
     $var wire 32 x SIZE_DATA_IN [31:0] $end
     $var wire 32 v SIZE_DATA_OUT [31:0] $end
     $var wire 1 o i_clk $end
     $var wire 1 p i_rst_n $end
     $var wire 1 S i_start $end
     $var wire 1 T i_data [0:0] $end
     $var wire 8 Q o_data [7:0] $end
     $var wire 1 R o_done $end
     $var wire 32 v DEPTH [31:0] $end
     $var wire 32 y SIZE_DEPTH [31:0] $end
     $var wire 1 Z shift_reg[0] [0:0] $end
     $var wire 1 [ shift_reg[1] [0:0] $end
     $var wire 1 \ shift_reg[2] [0:0] $end
     $var wire 1 ] shift_reg[3] [0:0] $end
     $var wire 1 ^ shift_reg[4] [0:0] $end
     $var wire 1 _ shift_reg[5] [0:0] $end
     $var wire 1 ` shift_reg[6] [0:0] $end
     $var wire 1 a shift_reg[7] [0:0] $end
     $var wire 3 b count [2:0] $end
     $var wire 3 c ncount [2:0] $end
     $var wire 1 d w_update_count $end
     $var wire 1 e w_count $end
     $var wire 1 f w_count_next $end
     $var wire 1 T w_idata [0:0] $end
     $var wire 8 g w_odata [7:0] $end
     $var wire 1 h w_done $end
     $scope module proc_shift_count $end
      $scope module unnamedblk1 $end
       $var wire 32 i i [31:0] $end
      $upscope $end
     $upscope $end
    $upscope $end
    $scope module VD_unit $end
     $var wire 1 o i_clk $end
     $var wire 1 p i_rst_n $end
     $var wire 1 + i_valid $end
     $var wire 2 s i_data [1:0] $end
     $var wire 1 T o_decision $end
     $var wire 1 S o_valid $end
     $var wire 2 - w_oBM_0 [1:0] $end
     $var wire 2 . w_oBM_1 [1:0] $end
     $var wire 2 / w_oBM_2 [1:0] $end
     $var wire 2 0 w_oBM_3 [1:0] $end
     $var wire 2 j w_iPM_0 [1:0] $end
     $var wire 2 k w_iPM_1 [1:0] $end
     $var wire 2 l w_iPM_2 [1:0] $end
     $var wire 2 m w_iPM_3 [1:0] $end
     $var wire 2 1 w_oPM_0 [1:0] $end
     $var wire 2 2 w_oPM_1 [1:0] $end
     $var wire 2 3 w_oPM_2 [1:0] $end
     $var wire 2 4 w_oPM_3 [1:0] $end
     $scope module ACSU $end
      $var wire 2 - i_BM_0 [1:0] $end
      $var wire 2 . i_BM_1 [1:0] $end
      $var wire 2 / i_BM_2 [1:0] $end
      $var wire 2 0 i_BM_3 [1:0] $end
      $var wire 2 j i_PM_0 [1:0] $end
      $var wire 2 k i_PM_1 [1:0] $end
      $var wire 2 l i_PM_2 [1:0] $end
      $var wire 2 m i_PM_3 [1:0] $end
      $var wire 2 1 o_PM_0 [1:0] $end
      $var wire 2 2 o_PM_1 [1:0] $end
      $var wire 2 3 o_PM_2 [1:0] $end
      $var wire 2 4 o_PM_3 [1:0] $end
      $var wire 2 1 w_PM_0 [1:0] $end
      $var wire 2 2 w_PM_1 [1:0] $end
      $var wire 2 3 w_PM_2 [1:0] $end
      $var wire 2 4 w_PM_3 [1:0] $end
      $scope module ACS_0 $end
       $var wire 2 - i_BM_0 [1:0] $end
       $var wire 2 0 i_BM_1 [1:0] $end
       $var wire 2 j i_PM_0 [1:0] $end
       $var wire 2 k i_PM_1 [1:0] $end
       $var wire 2 1 o_PM [1:0] $end
       $var wire 2 5 w_metric_path_0 [1:0] $end
       $var wire 2 6 w_metric_path_1 [1:0] $end
       $var wire 1 7 w_compare_less $end
       $scope module ADD0 $end
        $var wire 2 - i_BM [1:0] $end
        $var wire 2 j i_PM [1:0] $end
        $var wire 2 5 o_PM [1:0] $end
       $upscope $end
       $scope module ADD1 $end
        $var wire 2 0 i_BM [1:0] $end
        $var wire 2 k i_PM [1:0] $end
        $var wire 2 6 o_PM [1:0] $end
       $upscope $end
       $scope module CP $end
        $var wire 2 5 i_metric_path_0 [1:0] $end
        $var wire 2 6 i_metric_path_1 [1:0] $end
        $var wire 1 7 o_compare_less $end
       $upscope $end
      $upscope $end
      $scope module ACS_1 $end
       $var wire 2 / i_BM_0 [1:0] $end
       $var wire 2 . i_BM_1 [1:0] $end
       $var wire 2 l i_PM_0 [1:0] $end
       $var wire 2 m i_PM_1 [1:0] $end
       $var wire 2 2 o_PM [1:0] $end
       $var wire 2 8 w_metric_path_0 [1:0] $end
       $var wire 2 9 w_metric_path_1 [1:0] $end
       $var wire 1 : w_compare_less $end
       $scope module ADD0 $end
        $var wire 2 / i_BM [1:0] $end
        $var wire 2 l i_PM [1:0] $end
        $var wire 2 8 o_PM [1:0] $end
       $upscope $end
       $scope module ADD1 $end
        $var wire 2 . i_BM [1:0] $end
        $var wire 2 m i_PM [1:0] $end
        $var wire 2 9 o_PM [1:0] $end
       $upscope $end
       $scope module CP $end
        $var wire 2 8 i_metric_path_0 [1:0] $end
        $var wire 2 9 i_metric_path_1 [1:0] $end
        $var wire 1 : o_compare_less $end
       $upscope $end
      $upscope $end
      $scope module ACS_2 $end
       $var wire 2 0 i_BM_0 [1:0] $end
       $var wire 2 - i_BM_1 [1:0] $end
       $var wire 2 j i_PM_0 [1:0] $end
       $var wire 2 k i_PM_1 [1:0] $end
       $var wire 2 3 o_PM [1:0] $end
       $var wire 2 ; w_metric_path_0 [1:0] $end
       $var wire 2 < w_metric_path_1 [1:0] $end
       $var wire 1 = w_compare_less $end
       $scope module ADD0 $end
        $var wire 2 0 i_BM [1:0] $end
        $var wire 2 j i_PM [1:0] $end
        $var wire 2 ; o_PM [1:0] $end
       $upscope $end
       $scope module ADD1 $end
        $var wire 2 - i_BM [1:0] $end
        $var wire 2 k i_PM [1:0] $end
        $var wire 2 < o_PM [1:0] $end
       $upscope $end
       $scope module CP $end
        $var wire 2 ; i_metric_path_0 [1:0] $end
        $var wire 2 < i_metric_path_1 [1:0] $end
        $var wire 1 = o_compare_less $end
       $upscope $end
      $upscope $end
      $scope module ACS_3 $end
       $var wire 2 . i_BM_0 [1:0] $end
       $var wire 2 / i_BM_1 [1:0] $end
       $var wire 2 l i_PM_0 [1:0] $end
       $var wire 2 m i_PM_1 [1:0] $end
       $var wire 2 4 o_PM [1:0] $end
       $var wire 2 > w_metric_path_0 [1:0] $end
       $var wire 2 ? w_metric_path_1 [1:0] $end
       $var wire 1 @ w_compare_less $end
       $scope module ADD0 $end
        $var wire 2 . i_BM [1:0] $end
        $var wire 2 l i_PM [1:0] $end
        $var wire 2 > o_PM [1:0] $end
       $upscope $end
       $scope module ADD1 $end
        $var wire 2 / i_BM [1:0] $end
        $var wire 2 m i_PM [1:0] $end
        $var wire 2 ? o_PM [1:0] $end
       $upscope $end
       $scope module CP $end
        $var wire 2 > i_metric_path_0 [1:0] $end
        $var wire 2 ? i_metric_path_1 [1:0] $end
        $var wire 1 @ o_compare_less $end
       $upscope $end
      $upscope $end
     $upscope $end
     $scope module BMU $end
      $var wire 32 w SIZE_DATA [31:0] $end
      $var wire 2 s i_data [1:0] $end
      $var wire 2 - o_BM_0 [1:0] $end
      $var wire 2 . o_BM_1 [1:0] $end
      $var wire 2 / o_BM_2 [1:0] $end
      $var wire 2 0 o_BM_3 [1:0] $end
      $var wire 2 - w_BM_0 [1:0] $end
      $var wire 2 . w_BM_1 [1:0] $end
      $var wire 2 / w_BM_2 [1:0] $end
      $var wire 2 0 w_BM_3 [1:0] $end
      $scope module HD0 $end
       $var wire 2 s i_data [1:0] $end
       $var wire 2 z i_exp_code [1:0] $end
       $var wire 2 - o_hamming_distance [1:0] $end
       $var wire 1 A w_data_0 $end
       $var wire 1 B w_data_1 $end
       $scope module FA $end
        $var wire 1 A i_a $end
        $var wire 1 B i_b $end
        $var wire 1 { i_c $end
        $var wire 1 C o_s $end
        $var wire 1 D o_c $end
       $upscope $end
      $upscope $end
      $scope module HD1 $end
       $var wire 2 s i_data [1:0] $end
       $var wire 2 | i_exp_code [1:0] $end
       $var wire 2 . o_hamming_distance [1:0] $end
       $var wire 1 E w_data_0 $end
       $var wire 1 B w_data_1 $end
       $scope module FA $end
        $var wire 1 E i_a $end
        $var wire 1 B i_b $end
        $var wire 1 { i_c $end
        $var wire 1 F o_s $end
        $var wire 1 G o_c $end
       $upscope $end
      $upscope $end
      $scope module HD2 $end
       $var wire 2 s i_data [1:0] $end
       $var wire 2 } i_exp_code [1:0] $end
       $var wire 2 / o_hamming_distance [1:0] $end
       $var wire 1 A w_data_0 $end
       $var wire 1 H w_data_1 $end
       $scope module FA $end
        $var wire 1 A i_a $end
        $var wire 1 H i_b $end
        $var wire 1 { i_c $end
        $var wire 1 I o_s $end
        $var wire 1 J o_c $end
       $upscope $end
      $upscope $end
      $scope module HD3 $end
       $var wire 2 s i_data [1:0] $end
       $var wire 2 ~ i_exp_code [1:0] $end
       $var wire 2 0 o_hamming_distance [1:0] $end
       $var wire 1 E w_data_0 $end
       $var wire 1 H w_data_1 $end
       $scope module FA $end
        $var wire 1 E i_a $end
        $var wire 1 H i_b $end
        $var wire 1 { i_c $end
        $var wire 1 K o_s $end
        $var wire 1 L o_c $end
       $upscope $end
      $upscope $end
     $upscope $end
     $scope module PMU $end
      $var wire 32 w SIZE_DATA [31:0] $end
      $var wire 1 o i_clk $end
      $var wire 1 p i_rst_n $end
      $var wire 1 + i_valid $end
      $var wire 2 1 i_PM_0 [1:0] $end
      $var wire 2 2 i_PM_1 [1:0] $end
      $var wire 2 3 i_PM_2 [1:0] $end
      $var wire 2 4 i_PM_3 [1:0] $end
      $var wire 2 j o_PM_0 [1:0] $end
      $var wire 2 k o_PM_1 [1:0] $end
      $var wire 2 l o_PM_2 [1:0] $end
      $var wire 2 m o_PM_3 [1:0] $end
     $upscope $end
     $scope module SPMU $end
      $var wire 1 o i_clk $end
      $var wire 1 p i_rst_n $end
      $var wire 1 + i_valid $end
      $var wire 2 1 i_PM_0 [1:0] $end
      $var wire 2 2 i_PM_1 [1:0] $end
      $var wire 2 3 i_PM_2 [1:0] $end
      $var wire 2 4 i_PM_3 [1:0] $end
      $var wire 1 T o_decision $end
      $var wire 1 S o_valid $end
      $var wire 1 M w_compare_0 $end
      $var wire 1 N w_compare_1 $end
      $scope module CP0 $end
       $var wire 2 1 i_metric_path_0 [1:0] $end
       $var wire 2 3 i_metric_path_1 [1:0] $end
       $var wire 1 M o_compare_less $end
      $upscope $end
      $scope module CP1 $end
       $var wire 2 2 i_metric_path_0 [1:0] $end
       $var wire 2 4 i_metric_path_1 [1:0] $end
       $var wire 1 N o_compare_less $end
      $upscope $end
      $scope module u_state_machine $end
       $var wire 1 o i_clk $end
       $var wire 1 p i_rst_n $end
       $var wire 1 + i_valid $end
       $var wire 1 M i_compare_0 $end
       $var wire 1 N i_compare_1 $end
       $var wire 1 T o_decision $end
       $var wire 1 S o_valid $end
       $var wire 2 n state [1:0] $end
       $var wire 2 O nstate [1:0] $end
       $var wire 1 P w_valid $end
       $scope module NSL $end
        $var wire 1 + i_valid $end
        $var wire 1 M i_compare_0 $end
        $var wire 1 N i_compare_1 $end
        $var wire 2 n i_pre_state [1:0] $end
        $var wire 2 O o_next_state [1:0] $end
        $var wire 1 P o_valid $end
        $var wire 2 z S0 [1:0] $end
        $var wire 2 | S1 [1:0] $end
        $var wire 2 } S2 [1:0] $end
        $var wire 2 ~ S3 [1:0] $end
       $upscope $end
       $scope module OL $end
        $var wire 2 n i_curr_state [1:0] $end
        $var wire 1 T o_decision_bit $end
        $var wire 2 z S0 [1:0] $end
        $var wire 2 | S1 [1:0] $end
        $var wire 2 } S2 [1:0] $end
        $var wire 2 ~ S3 [1:0] $end
       $upscope $end
       $scope module SM $end
        $var wire 1 o i_clk $end
        $var wire 1 p i_rst_n $end
        $var wire 1 P i_valid $end
        $var wire 2 O i_next_state [1:0] $end
        $var wire 2 n o_curr_state [1:0] $end
        $var wire 1 S o_valid $end
        $var wire 2 z S0 [1:0] $end
       $upscope $end
      $upscope $end
     $upscope $end
    $upscope $end
   $upscope $end
  $upscope $end
 $upscope $end
$enddefinitions $end


#0
b00 #
b00 $
b00 %
b00 &
b00 '
b00 (
b00 )
b00 *
0+
0,
b00 -
b01 .
b01 /
b10 0
b00 1
b01 2
b00 3
b01 4
b00 5
b10 6
17
b01 8
b01 9
1:
b10 ;
b00 <
0=
b01 >
b01 ?
1@
0A
0B
0C
0D
1E
1F
0G
1H
1I
0J
0K
1L
1M
1N
b00 O
0P
b00000000 Q
0R
0S
0T
0U
b000 V
0W
b00 X
0Y
0Z
0[
0\
0]
0^
0_
0`
0a
b000 b
b000 c
0d
0e
0f
b00000000 g
0h
b00000000000000000000000000000000 i
b00 j
b00 k
b00 l
b00 m
b00 n
0o
0p
0q
b0000000000000000 r
b00 s
b000 t
b00000000000000000000000000010000 u
b00000000000000000000000000001000 v
b00000000000000000000000000000010 w
b00000000000000000000000000000001 x
b00000000000000000000000000000011 y
b00 z
0{
b01 |
b10 }
b11 ~
#5000
b11 2
b10 3
b11 4
b11 6
b11 8
b11 9
b11 <
1=
b11 >
b11 ?
b00000000000000000000000000001000 i
b11 k
b11 l
b11 m
1o
#10000
1,
0o
1q
#15000
1o
#20000
0o
1p
#25000
b11 #
b01 %
b01 &
b01 (
b01 )
b11 *
1+
b10 -
b00 0
b10 1
b00 3
b10 5
b00 ;
1A
1B
1D
0E
0H
0L
0M
b10 O
1P
1W
b11 X
1o
b1101010001010011 r
b11 s
b001 t
#30000
0o
#35000
b11 1
b01 2
b10 3
b01 4
b11 5
b01 8
b10 ;
b01 >
b01 O
1S
1T
b001 V
1d
b10 j
b00 l
b10 n
1o
b010 t
#40000
0o
#45000
b00 -
b10 0
b10 2
b01 3
b10 4
b11 8
b10 9
0:
b11 ;
b01 <
0=
b11 >
b10 ?
0@
0A
0B
0D
1E
1H
1L
b10 O
0T
b010 V
b00 X
1Z
b001 c
1e
1f
b00000001 g
b11 j
b01 k
b10 l
b01 m
b01 n
1o
b00 s
b011 t
#50000
0o
#55000
b01 -
b00 .
b10 /
b01 0
b11 3
b01 4
b11 <
1=
b01 >
b11 ?
1@
1A
1C
0E
0F
0I
1J
1K
0L
1M
0N
b11 O
1T
b011 V
b01 X
0Z
b001 b
b010 c
b00000000 g
b10 k
b01 l
b10 m
b10 n
1o
b01 s
b100 t
#60000
0o
#65000
b01 2
b11 4
b01 9
b11 >
1N
b01 O
b100 V
1[
b010 b
b011 c
b00000010 g
b11 l
b01 m
b11 n
1o
b101 t
#70000
0o
#75000
b00 -
b01 .
b01 /
b10 0
b11 2
b01 3
b11 9
1:
b01 <
0=
0A
0C
1E
1F
1I
0J
0K
1L
0M
b10 O
0T
b101 V
b00 X
1\
b011 b
b100 c
b00000110 g
b01 k
b11 m
b01 n
1o
b00 s
b110 t
#80000
0o
#85000
b01 -
b00 .
b10 /
b01 0
b11 3
b01 4
b11 <
1=
b01 >
1A
1C
0E
0F
0I
1J
1K
0L
1M
0N
b11 O
1T
b110 V
b01 X
b100 b
b101 c
b11 k
b01 l
b10 n
1o
b01 s
b111 t
#90000
0o
#95000
b01 2
b11 4
b01 9
0:
b11 >
1N
b01 O
b111 V
1Y
1^
b101 b
b110 c
b00010110 g
b11 l
b01 m
b11 n
1o
b000 t
#100000
0o
#105000
0+
0,
b00 -
b01 .
b01 /
b10 0
b11 2
b01 3
b11 9
1:
b01 <
0=
0A
0C
1E
1F
1I
0J
0K
1L
0M
0P
0T
1U
b000 V
b11 X
0Y
1_
b110 b
b111 c
b00110110 g
b01 k
b11 m
b01 n
1o
b00 s
#110000
0o
#115000
1,
0S
0U
0W
b111 b
0d
0f
1h
1o
#120000
0o
#125000
1+
b10 -
b00 0
b01 1
b11 3
b01 6
07
b11 <
1=
1A
1B
1D
0E
0H
0L
1M
b00 O
1P
b00110110 Q
1R
1W
0e
1o
b11 s
b001 t
#130000
0o
#135000
0+
b00 -
b10 0
b00 1
b10 3
b00 5
b11 6
17
b10 ;
0A
0B
0D
1E
1H
1L
0P
b00000000 Q
0R
0W
b00 X
0[
0\
0^
0_
b000 b
b000 c
b00000000 g
0h
b00 j
b11 k
b00 n
1o
0p
b00 s
b000 t
#140000
0o
#145000
1+
b10 -
b00 0
b10 1
b00 3
b10 5
b00 ;
1A
1B
1D
0E
0H
0L
0M
b10 O
1P
1W
b11 X
1o
1p
b11 s
b001 t
#150000
0o
#155000
b10 %
b00 &
b10 '
b00 (
b10 )
b11 1
b01 2
b10 3
b01 4
b11 5
b01 8
b10 ;
b01 >
b01 O
1S
1T
b001 V
1d
b10 j
b00 l
b10 n
1o
b1110001000100011 r
b010 t
#160000
0o
#165000
b00 -
b10 0
b10 2
b01 3
b10 4
b11 8
b10 9
0:
b11 ;
b01 <
0=
b11 >
b10 ?
0@
0A
0B
0D
1E
1H
1L
b10 O
0T
b010 V
b00 X
1Z
b001 c
1e
1f
b00000001 g
b11 j
b01 k
b10 l
b01 m
b01 n
1o
b00 s
b011 t
#170000
0o
#175000
b01 -
b10 .
b00 /
b01 0
b01 2
b11 3
b01 8
b11 9
1:
b11 <
1=
1B
1C
0F
1G
0H
0I
1K
0L
1M
b01 O
1T
b011 V
b10 X
0Z
b001 b
b010 c
b00000000 g
b10 k
b01 l
b10 m
b10 n
1o
b10 s
b100 t
#180000
0o
#185000
b00 -
b01 .
b01 /
b10 0
b11 2
b01 3
b11 4
b11 8
b01 <
0=
b11 ?
1@
0B
0C
1F
0G
1H
1I
0K
1L
0M
b10 O
0T
b100 V
b00 X
1[
b010 b
b011 c
b00000010 g
b01 k
b11 l
b01 n
1o
b00 s
b101 t
#190000
0o
#195000
b01 -
b10 .
b00 /
b01 0
b01 2
b11 3
b01 8
b11 <
1=
1B
1C
0F
1G
0H
0I
1K
0L
1M
b01 O
1T
b101 V
b10 X
b011 b
b100 c
b11 k
b01 l
b11 m
b10 n
1o
b10 s
b110 t
#200000
0o
#205000
b00 -
b01 .
b01 /
b10 0
b11 2
b01 3
b11 8
b01 <
0=
0B
0C
1F
0G
1H
1I
0K
1L
0M
b10 O
0T
b110 V
b00 X
1]
b100 b
b101 c
b00001010 g
b01 k
b11 l
b01 n
1o
b00 s
b111 t
#210000
0o
#215000
b01 -
b10 .
b00 /
b01 0
b01 2
b11 3
b01 8
b11 <
1=
1B
1C
0F
1G
0H
0I
1K
0L
1M
b01 O
1T
b111 V
b10 X
1Y
b101 b
b110 c
b11 k
b01 l
b10 n
1o
b10 s
b000 t
#220000
0o
#225000
0+
0,
b00 -
b01 .
b01 /
b10 0
b11 2
b01 3
b11 8
b01 <
0=
0B
0C
1F
0G
1H
1I
0K
1L
0M
0P
0T
1U
b000 V
b11 X
0Y
1_
b110 b
b111 c
b00101010 g
b01 k
b11 l
b01 n
1o
b00 s
#230000
0o
#235000
1,
0S
0U
0W
b111 b
0d
0f
1h
1o
#240000
0o
#245000
1+
b10 -
b00 0
b01 1
b11 3
b01 6
07
b11 <
1=
1A
1B
1D
0E
0H
0L
1M
b00 O
1P
b00101010 Q
1R
1W
0e
1o
b11 s
b001 t
#250000
0o
#255000
0+
b00 -
b10 0
b00 1
b10 3
b00 5
b11 6
17
b10 ;
0A
0B
0D
1E
1H
1L
0P
b00000000 Q
0R
0W
b00 X
0[
0]
0_
b000 b
b000 c
b00000000 g
0h
b00 j
b11 k
b00 n
1o
0p
b00 s
b000 t
#260000
0o
#265000
1+
b10 -
b00 0
b10 1
b00 3
b10 5
b00 ;
1A
1B
1D
0E
0H
0L
0M
b10 O
1P
1W
b11 X
1o
1p
b11 s
b001 t
#270000
0o
#275000
b01 $
b00 %
b00 '
b00 )
b00 *
b11 1
b01 2
b10 3
b01 4
b11 5
b01 8
b10 ;
b01 >
b01 O
1S
1T
b001 V
1d
b10 j
b00 l
b10 n
1o
b0000000000000111 r
b010 t
#280000
0o
#285000
b01 -
b00 .
b10 /
b01 0
b10 1
b10 4
b10 6
07
b11 8
b01 9
0:
b11 ;
b10 <
0=
b10 >
0B
1C
0D
0F
1H
0I
1J
1K
1M
b00 O
0T
b010 V
b01 X
1Z
b001 c
1e
1f
b00000001 g
b11 j
b01 k
b10 l
b01 m
b01 n
1o
b01 s
b011 t
#290000
0o
#295000
b00 -
b01 .
b01 /
b10 0
b11 2
b01 3
b11 4
b10 5
b11 6
17
b11 9
1:
b01 <
b11 >
0A
0C
1E
1F
1I
0J
0K
1L
0M
b10 O
b011 V
b00 X
0Z
b001 b
b010 c
b00000000 g
b10 j
b10 m
b00 n
1o
b00 s
b100 t
#300000
0o
#305000
b10 2
b11 3
b10 4
b10 8
b11 <
1=
b10 >
1M
b01 O
1T
b100 V
b010 b
b011 c
b11 k
b01 l
b11 m
b10 n
1o
b101 t
#310000
0o
#315000
b11 2
b10 3
b11 4
b11 8
b10 <
0=
b11 >
b00 O
0T
b101 V
1\
b011 b
b100 c
b00000100 g
b10 k
b11 l
b10 m
b01 n
1o
b110 t
#320000
0o
#325000
b11 3
b11 <
1=
b110 V
b100 b
b101 c
b11 k
b10 l
b11 m
b00 n
1o
b111 t
#330000
0o
#335000
b111 V
1Y
b101 b
b110 c
b11 l
1o
b000 t
#340000
0o
#345000
0+
0,
0P
1U
b000 V
0Y
b110 b
b111 c
1o
#350000
0o
#355000
1,
0S
0U
0W
b11 X
b111 b
0d
0f
1h
1o
#360000
0o
#365000
1+
b10 -
b00 0
b11 1
b10 3
b11 5
b10 ;
1A
1B
1D
0E
0H
0L
0M
b10 O
1P
b00000100 Q
1R
1W
0e
1o
b11 s
b001 t
#370000
0o
#375000
0+
b00 -
b10 0
b00 1
b00 5
0A
0B
0D
1E
1H
1L
1M
b00 O
0P
b00000000 Q
0R
0W
b00 X
0\
b000 b
b000 c
b00000000 g
0h
b00 j
1o
0p
b00 s
b000 t
#380000
0o
#385000
1+
b10 -
b00 0
b10 1
b00 3
b10 5
b00 ;
1A
1B
1D
0E
0H
0L
0M
b10 O
1P
1W
b11 X
1o
1p
b11 s
b001 t
#390000
0o
#395000
b01 #
b11 $
b11 %
b01 &
b01 '
b11 (
b01 -
b00 .
b10 /
b01 0
b11 1
b10 2
b11 3
b00 4
b11 5
b10 8
b11 ;
b00 >
0B
1C
0D
0F
1H
0I
1J
1K
1M
0N
b11 O
1S
1T
b001 V
b01 X
1d
b10 j
b00 l
b10 n
1o
b0000110101111101 r
b01 s
b010 t
#400000
0o
#405000
b10 -
b01 .
b01 /
b00 0
b10 1
b01 2
b01 4
b10 6
07
b11 8
b01 9
0:
b11 >
b01 ?
0@
1B
0C
1D
1F
0H
1I
0J
0K
1N
b01 O
b010 V
b11 X
1Z
b001 c
1e
1f
b00000001 g
b11 j
b10 k
b11 l
b00 m
b11 n
1o
b11 s
b011 t
#410000
0o
#415000
b01 1
b10 2
b10 3
b10 4
b01 6
b10 9
b10 ;
b10 ?
b00 O
0T
b011 V
b001 b
b010 c
b10 j
b01 k
b01 m
b01 n
1o
b100 t
#420000
0o
#425000
b01 -
b00 .
b10 /
b01 0
b10 1
b10 5
b11 6
17
b10 >
b11 ?
1@
0B
1C
0D
0F
1H
0I
1J
1K
b100 V
b01 X
b010 b
b011 c
b01 j
b10 k
b10 l
b10 m
b00 n
1o
b01 s
b101 t
#430000
0o
#435000
b11 1
b11 3
b11 5
b11 ;
b101 V
b011 b
b100 c
b10 j
1o
b110 t
#440000
0o
#445000
b10 -
b01 .
b01 /
b00 0
b10 1
b11 2
b11 4
b10 6
07
b11 9
1:
b11 >
1B
0C
1D
1F
0H
1I
0J
0K
b110 V
b11 X
b100 b
b101 c
b11 j
b11 l
1o
b11 s
b111 t
#450000
0o
#455000
b00 -
b10 0
b10 5
b11 6
17
0A
0B
0D
1E
1H
1L
b111 V
b00 X
1Y
b101 b
b110 c
b10 j
b11 k
b11 m
1o
b00 s
b000 t
#460000
0o
#465000
0+
0,
0P
1U
b000 V
0Y
b110 b
b111 c
1o
#470000
0o
#475000
1,
0S
0U
0W
b01 X
b111 b
0d
0f
1h
1o
#480000
0o
#485000
1+
b01 -
b00 .
b10 /
b01 0
b11 1
b11 5
1A
1C
0E
0F
0I
1J
1K
0L
1P
b00000001 Q
1R
1W
0e
1o
b01 s
b001 t
#490000
0o
#495000
1S
b001 V
b11 j
1o
b010 t
#500000
0o
#505000
b10 -
b01 .
b01 /
b00 0
1B
0C
1D
1F
0H
1I
0J
0K
b010 V
b11 X
1o
b11 s
b011 t
#510000
0o
#515000
b011 V
1o
b100 t
#520000
0o
#525000
b01 -
b00 .
b10 /
b01 0
0B
1C
0D
0F
1H
0I
1J
1K
b100 V
b01 X
1o
b01 s
b101 t
#530000
0o
#535000
b101 V
1o
b110 t
#540000
0o
#545000
b10 -
b01 .
b01 /
b00 0
1B
0C
1D
1F
0H
1I
0J
0K
b110 V
b11 X
1o
b11 s
b111 t
#550000
0o
#555000
b00 -
b10 0
0A
0B
0D
1E
1H
1L
b111 V
b00 X
1Y
1o
b00 s
b000 t
#560000
0o
#565000
0+
0,
0P
1U
b000 V
0Y
1o
#570000
0o
#575000
1,
0S
0U
0W
b01 X
1o
#580000
0o
#585000
1+
b01 -
b00 .
b10 /
b01 0
1A
1C
0E
0F
0I
1J
1K
0L
1P
1W
1o
b01 s
b001 t
